64.75349891531015	13.854368078970648
93.8867184679273	60.67402313879422
4.711579465762272	70.81090913618885
54.91834696476402	74.3087499084384
83.90504535478568	79.15270960494836
80.42783941927082	65.16218228432855
29.490566399038343	57.99587171428963
34.779905920187396	91.98251071583297
28.36720502111898	86.10010864858015
47.77723075443381	40.61884802464009
24.38541395190739	32.98034534620625
77.62008347491314	10.46361267333843
41.15534678944614	70.80408282247225
57.18480551181906	91.36259603014399
7.525879033753535	43.83228321547957
95.40484928904742	49.558144380465826
92.70514629891449	16.821479152668417
46.87067678022525	55.83851690531127
14.37188980759634	39.40255895290006
8.84794958886883	54.11033972973671
57.830018776285016	60.73524195632562
97.13552796062899	29.899050500818802
92.63526558841329	80.11231770134499
21.614727052465575	74.54392736983337
4.072713243164783	12.924399101376526
9.727754554332035	3.5730785133167853
91.63793667331734	43.944567914745726
29.435888429964642	56.17137707621268
57.13807213631641	14.866780111623223
83.26774390483678	27.41843659860845
9.188101562145857	7.758509121290224
43.476516100267624	79.24335024286849
38.257269596461676	91.63576437204898
35.35175549946109	5.772155842702709
97.1269298473322	95.01451228896876
99.98412799113481	1.419413720791396
10.968695645051852	21.9561416427691
5.052975493205524	87.44200322860863
59.97230556665818	35.719051473714245
7.6114240242653	33.22969738229047
21.950779005583787	83.04453825567957
98.14621301339884	98.04076676046681
26.6006292447887	88.65341568791311
69.44412042855294	15.101354527865707
95.03762313461598	50.26817777291864
36.45964334592525	16.126419899251655
11.165421358767414	22.162408164985024
81.9667522315778	14.360036333782933
15.650818894193785	84.06938310358142
32.43907479892771	72.46129428111121
86.836120622179	49.847825751285214
8.660275837652275	25.573834994158297
77.65836516020474	26.821876477101082
7.87576665559353	94.85248091527522
40.14876623891627	12.185925934896702
96.62699490770068	55.119768945678125
38.76453402794493	37.646055586653596
51.66044417100759	21.13893471478211
62.120065506894186	78.92804582961553
54.7730777726671	59.446018756420806
98.65532862569688	93.12308031967368
23.47384487258124	59.90136022867816
55.343031414588005	67.06241632315881
18.311613395133474	95.81581168240497
96.68335287175228	36.96190443036033
15.891189298020869	57.636684794828675
92.25440797584632	52.32156842032786
56.26359345545179	9.038243646393218
43.20909023167605	83.98113323035162
67.48257473487017	82.91331579774922
83.67442900340349	65.28971381900931
70.62385924470559	32.76168006902177
67.4765029838427	34.36805055458905
3.768431811280304	82.9358993561862
95.86353774194741	92.54312957273315
37.65247867902601	29.58290373202295
76.88819950297454	42.204769498462255
35.91554566252866	27.080046669319756
50.3369372333318	55.56108573721702
77.37570274440739	88.74429504979514
55.90876972293151	98.23736578012601
66.43309476804026	57.54395878519922
47.184038332414616	15.698864787418687
18.488751690408833	27.412451788850035
98.01629450814697	8.42410274794181
88.17094088394144	67.4550591843677
17.29802211875362	58.087460876833084
4.974459418562615	52.12610055689731
5.509975170890968	20.588014319833302
76.5518271159626	94.41981966983137
21.11350294240284	18.340473916811984
24.22333633471021	18.18952835523119
21.755741301361187	1.2432542996667517
58.691316545966174	85.45208540664059
57.36136196927192	16.409470407889803
56.87096054736893	30.67784857557848
9.843155417661409	54.96102149935468
84.71453164468916	65.35010731219968
23.00528624407283	63.353792647377446
19.99871216811058	1.2655229904871779
9.601490690901304	68.59261070834442
99.26655765630184	83.17610089318116
45.87892484545382	20.493437666965654
