69.91045229362128	48.27134066471914
10.9074016138085	55.290116129817065
70.42239517368105	87.23287608385837
27.443222514015897	35.239623625315076
54.92103868449362	21.581616035938
18.777558821570615	70.66679068291494
35.04337153861884	54.676220371518134
96.35388101440395	52.3932252115372
40.570533640016095	66.49350391540928
79.88307937453808	46.902627343119896
61.68883371913202	78.47015487814835
15.690168340006627	31.875844734690062
94.36191498110546	95.28409859337008
21.500449376037444	48.9309388293344
21.06601893415938	40.02149752976898
96.38335033398151	35.505734319466555
81.3215186351678	45.64377496523102
29.527723577421927	61.746622885524225
80.95290442581403	27.087540198217418
35.39218997640175	12.204586176146137
69.70204642191702	24.656993620462053
89.6493429220048	91.6245433106126
31.653157874462025	34.631057667275364
29.11292810893874	90.39032321906436
78.36899970545899	27.001993611326427
85.15818783077532	26.172299008232834
21.125299711100887	65.91982984088503
12.181124161233924	14.85540307621892
33.446471374051015	97.41946309245819
53.208156617469314	60.43592060438395
33.20060759818354	54.856231267660526
56.203689470759954	74.47216131506364
47.18472835346067	1.2436102921699943
95.2278355852037	93.22542892172714
66.48904098517016	89.3457179809733
65.10230402409061	18.22241771824844
37.501516574513325	24.31732922477935
82.92489323083102	47.324888254302444
87.73800854635611	72.51262147531736
94.41877707183289	45.5042328182519
28.816707160431708	78.4635473393644
88.52986161898461	2.1353754546777015
18.085838156097623	88.27086814446452
69.45438262140983	46.552236702768035
91.76520229079924	9.538208436105522
11.385018319360585	62.0690358943622
29.129524016739882	51.53885707711711
95.82641336976344	73.27297988676348
95.36067027068444	98.79334209861591
15.359220330526824	60.927121734130694
17.941191247254917	61.76050208174845
62.53372884538463	27.16004977998242
82.83916315698336	17.27548035180597
51.04140873986568	25.83015214264278
26.729409881684816	76.75664006217889
5.448681742045958	25.381392914646895
17.673312656717634	46.25272682650346
27.676660887995077	78.88638026761022
52.18682672479934	93.60020889263593
44.90881095052608	1.7666743050161027
12.064267223954072	57.34484046718086
92.62945305288031	29.425742946379053
88.90441947570949	52.33371256494653
28.81102630096669	45.77489784799509
0.9259111466261793	21.749834414469948
88.38030030791914	45.949348422492754
2.7004435957125095	10.977108785309975
87.22388420207439	48.30586540017957
31.509163943884566	28.875321785509588
38.120445126524636	27.134039545371003
34.74361756126898	26.466372575228114
54.55051991846387	2.839211573071121
7.59349576127657	43.95590926810641
70.71373351624163	95.9087325148981
