74.20787053713389	45.05147668635655
49.502535917622104	32.30621827925621
5.667884069200979	1.8594783720442432
59.12360632725443	21.71940347177327
24.559694432173952	78.29539526491158
66.6465218531877	15.719591896694208
26.895443205179703	47.112904481764204
2.7416072417630555	75.25200088170139
81.72162321456977	58.393193204256754
73.42594381424978	18.10724904001999
74.94298041570435	84.79479630001318
80.23214117281586	10.163770553551243
22.332513223630237	22.309367377769394
22.82590143892067	21.169137113315738
56.47421966367805	80.37537122253856
59.42023518223082	73.65754385352949
31.687308273602653	64.65712869991842
41.287201296867515	3.2871759742184037
65.7931214019162	6.802811632240202
42.95154121559921	50.5338186332916
49.31815277561046	66.38162207240373
41.403232460913365	51.70909486771923
78.87518301978508	57.86520485274782
82.90817072689408	50.02319297120149
26.176674273125588	66.25477368361942
96.65035303806296	90.77687673242404
27.25950260439951	88.43890825006879
67.39773489492879	94.91981272032574
28.13903188821921	60.63972921982942
40.31855442759645	7.876959243140869
31.115653085501304	94.10174767567499
99.73766205277433	34.90224375966188
36.52988734263213	5.854840789810279
94.61515437275942	34.09903574468577
11.901066094303935	67.13643800565515
36.47087631037073	14.90485683913958
92.3791487676877	46.664872712517216
94.0062459662563	39.34501444184549
55.09819211601441	9.465830401658415
65.09682094911926	82.80274975700709
52.02778837791509	7.295889824573321
44.50342402077951	15.281196778118833
87.3235996164327	10.376154176942842
54.90096247093616	41.22200106458218
7.31677149231521	55.698884640741596
23.995405798376613	62.32470176486898
98.47281337976224	1.53028106414006
97.4834203742028	85.3454094607884
0.7513628164694364	75.92545706812953
78.00894648692291	52.58450140811512
83.06520825931631	56.550476533777974
22.26777442072372	93.28340640905519
9.691032245023889	46.1224597006916
8.307818608235317	32.37233320093495
82.1425195652382	43.23490289516832
68.98594511390912	87.25359503924754
53.29531042790141	55.62127945541487
79.18837764885934	13.262011402312845
16.937146052694562	99.44337899072548
99.65076974839612	78.18953328214
65.57893826990347	95.27919199539816
87.4160075463794	53.52761601501196
9.771046516040638	50.92346974022739
7.600148761088354	57.29215729719588
7.6251641245483	77.06734683908073
87.20772321002262	93.51624717102506
41.66664551125342	29.068147038632162
1.2049227090383807	9.78333262160861
31.564690821313135	88.89145065305655
96.27429266838878	5.102757162854765
95.58173831596358	58.18528747641981
