93.47271086298798	71.50518491101585
67.12964384135172	73.77782556124895
60.59321070660593	41.35643406022127
87.29164174345857	22.11864310621379
30.123424380956475	7.9922414921269835
69.22501803320166	24.480866784432877
80.9374922460201	68.00553283456318
83.11582462405809	75.54296980393087
20.745810728330504	52.132883241330475
18.973116469887717	48.04009823795153
75.45125504753109	20.889764271578702
69.72128036996139	79.92956783087823
38.53054353305624	91.38062229889208
55.27896321132406	36.823126540848016
36.79124288883403	12.930719096360066
14.747680068862524	27.639052474093372
87.34536675033932	35.48060683839089
3.084698506848027	11.998350788708112
62.89798060041766	85.85077111080224
78.52635048649856	31.89812952676788
92.41833156433728	1.1661867270072457
45.48697868703784	45.994893455340566
87.6039690431215	60.22739691348641
22.985478855400785	57.778583413428834
43.747539141124356	43.760570233151356
84.58831697261274	86.03290486181068
72.93499765956894	11.88047211468155
99.23129854930079	69.53963163376714
16.443228197785974	91.34289412249218
33.64894448631905	24.02087957921474
10.465575674204164	77.60317127430369
11.965459986714666	90.63888662059169
55.80883298660919	89.09119674225471
11.753266363446047	4.745547790123306
85.08371581781988	43.838566429622105
66.936057155312	62.30107713167595
1.3046321126678806	0.0347832710118956
13.635198047600738	59.74706489140673
20.544894039781493	70.58319348477488
67.15521167689774	67.5361619573675
80.53021796129443	33.50192508142026
94.02160483741025	1.4409859705941774
62.20603082971298	3.6766859055027967
31.736709059266698	71.83373712533601
22.27423106845916	77.62469718534078
70.70119798020573	97.62829672092131
68.01965534038074	19.228805620125055
77.1148226094019	63.08191423054813
65.5032217135778	5.494452689122175
4.8880758877935415	32.69586152467711
77.28942428474873	24.46657294357958
7.437037824976722	34.236758183545334
47.74030824109169	16.794634199938653
24.242945233025814	66.26116962180946
68.24417383695963	36.080630651117986
33.29631578968944	92.77735970628783
4.60086447818836	24.684241253366835
5.287755582794795	84.87352058275576
87.49882512073798	7.2124883042410275
52.107552501008605	8.181492302610405
76.46371701672263	91.6649512733633
61.95226387164809	58.807219512366245
55.12378543458782	63.316403340740514
43.67672548272263	45.831608632888035
96.86334439081584	41.024852470566266
33.093207915443216	40.057495677298505
9.651119023126197	12.348787790234606
64.18480483614411	29.48903843785272
41.79286515501685	66.36710001600137
58.5066898392119	94.20002522134084
68.7483063597247	51.61255768827334
11.871899320970291	75.61670098570484
48.44777108888905	3.6310518721136775
85.1761125635452	98.76355008513772
10.740733343101372	91.46010048888793
82.85701868830672	27.69829483102019
82.53929804110555	32.707603620146294
40.1570200832581	66.94639804644389
40.15359434559805	19.44692668425422
79.26486900851096	97.09809710988671
82.05192998051403	42.51917162862707
79.1011218740552	82.8221646870298
36.040779619547116	72.11362157147776
5.88906411597473	8.574110423683457
36.703986990534155	1.2576457827177978
89.97357322735417	34.14792027521254
24.67130179863368	3.8503069796088085
32.49804427391014	93.70203841811919
70.58644569254197	46.17964323301334
60.67958776061377	66.17607961967875
64.53792521509124	80.57746226438155
39.51733821975283	0.2989489478407936
83.69633989565732	15.409477457241715
3.0172036805501956	13.628728104322974
19.513759268214837	11.435947949156343
39.28836859360521	88.00016168456885
37.60547427984555	58.942554706239825
81.66311398904296	40.75246715424744
54.0842170300082	52.538937436880175
19.467187109360218	42.15604631135044
17.651902303001343	98.45969927195574
93.19770151495811	5.33221308660321
23.411169542030553	2.530882490582631
77.10972990148515	53.26238720004059
20.06005233713496	76.30990931568131
16.950198092530368	12.577812850815228
50.48009454945893	22.46463232971707
6.5514166811698304	90.73783313704587
1.7089013619236093	73.16760412716289
72.83436823014796	28.168891373177686
81.26830609142566	89.02646886692327
39.95837916123948	41.38776506640029
95.29784501218714	63.20298027844166
38.59784435048983	18.345098748490873
21.366322128167127	73.26633575001493
68.54859587978922	17.881514488174275
17.87873663259294	87.26848556768164
