46.813290050685076	66.15045579569784
54.4818083681563	60.566622805119195
63.9000387986726	65.65049184171251
70.09870426705989	6.600215341871651
17.030818129697643	35.40060975608655
24.41657885347165	35.62849769501878
30.548899707878796	22.819849642743193
24.289853977468645	54.88568286803008
25.273878399752302	18.511782345703274
60.20009271532225	66.09866371676183
72.14464760923298	59.09090652578378
13.813058182410586	57.79537477086307
41.13643077595245	29.271958736189397
61.1082920435453	38.4410632758228
54.32089842442037	25.914308132168664
18.06973504829672	54.392234650088355
19.215420615355296	29.07230128511642
29.871042431797058	31.43552777460522
1.6118686117721048	27.472512531653404
48.81894311983602	69.74007967426546
11.043022684954284	28.193438110376825
78.4525996058677	56.87836330857342
12.63347908154655	4.358833596869283
40.04075082044217	35.86867647381108
27.975136305695404	87.2635063741913
57.65485058786229	2.436816211658066
24.146386851213887	83.59005060916324
39.746570790647596	87.47010123074999
98.14896807458513	55.007128225812494
10.080032529364724	57.556120278608006
59.178803440562156	62.328912462052635
6.150495688575419	11.018738607019374
89.21950187989593	15.06474247336589
9.222537405108044	42.99650068320071
28.005877423934923	23.19119359748517
38.473254711621315	47.96034270297842
35.07822073758238	39.24066627444036
49.264596851953215	99.4359784769842
69.20859671849958	74.56037011745367
94.07361515546867	93.5181320442423
36.64702253112148	82.35259804428019
18.03729248230145	5.818379916782068
92.61329608707615	59.21964920341901
7.482441444430233	66.61496404659776
68.93248127648494	27.31271455023272
72.95058341390906	43.74462709947539
46.31047388359215	34.07042758531438
63.88131615535464	67.60665055981406
96.76536212637336	69.27839183187457
63.014951526578514	11.225391705339828
0.8847590183257426	81.2616181771104
86.45257970356859	17.906056122289716
9.939318682226073	57.0607306478236
16.880345746574786	2.381017948927633
32.47250535143098	36.03442180105383
45.71778781772847	54.41032040118516
29.449841984115967	52.450423225791084
99.82801204068492	52.50472516125229
79.32651952260247	86.2204741968285
6.633820804691659	89.56266155152012
88.92524524424736	48.54913497327917
87.42723837732257	87.59727123937692
40.699953463504315	1.6873793439496354
92.59564568306827	15.553910220073474
40.54111774423025	33.37315864097536
67.26287420221978	67.0166170731226
80.572985282776	56.73019486102001
59.14921701190655	48.054556943176706
41.140500507689225	60.517095498904375
25.03059128591697	18.459861060608375
90.8439172561249	29.634055935849513
42.04096247154544	76.76711825531858
66.24291720523982	58.32214797420852
44.71817601907754	70.32577875493735
71.45721780101657	32.174260827285394
12.880379073313941	68.71423622538177
8.7733741620878	64.54789895889178
64.08940669539692	51.980610074689736
3.2011941892058693	25.98817363525662
22.02352553481328	30.78485593937512
96.35011107043319	48.18571182549195
92.59100962435973	41.0909369099888
62.59262409889925	87.97348098807913
77.08707153545214	41.75784669689106
31.79704664170371	84.87416446831404
51.25296534712248	61.183084634771646
7.703095420480133	59.444195461849404
48.871015436363926	94.61718480573073
35.31475612828277	16.46992717740654
27.333405870266382	89.12317332127957
93.6043571197096	91.65510070150471
2.6036542293954357	70.9169753245934
48.66653158585853	6.453594334654744
61.626578570928146	33.97763035311885
97.9437107288184	19.61398429188871
75.98682776107738	46.318892602612415
70.49640345719752	29.437632160588723
82.37736549186107	57.095961810728866
66.38897872863076	23.13171141888989
88.19765145278471	65.55926863719276
9.414296370351183	61.060358556302866
20.496535109510294	45.823344308986016
71.65389697453995	76.21865177615999
38.531736967269524	92.96313204665361
48.04322836422653	42.37481035553241
44.82935471107567	5.644536256291676
34.77498260233358	6.349360094003043
11.602244603286627	42.36997234761737
51.30670818232702	0.5521463975759033
20.641805722485586	79.39664714195202
24.26501986966415	43.28190039147584
51.56807581863515	19.644598693055148
50.85640676288189	18.089115131251155
2.4324730138114314	73.59250306444524
54.2225884355233	79.73060309159138
76.06756669609639	4.790394135899834
66.93153090162596	29.759019828135703
52.35806768700402	5.9638782660757395
41.87155667244156	79.14909226965572
56.07638758064123	76.98871273874657
46.2988464457671	22.860334055146037
42.77883711358802	23.28326897719384
79.25785280627382	4.257499374390106
22.721289888024888	15.580373407289594
25.08754719141314	79.49897638805295
56.58444800361255	48.70654970888542
10.867430157588853	19.472407880021247
30.007322770195476	33.61360017209284
16.041045362374497	91.36788849047953
83.28406807295369	70.82983487192668
17.9870398477474	6.636703198186844
3.206953944551405	60.04214383469705
17.129720793869286	30.701913765715528
85.62952312081343	17.341527363231222
26.414818251063476	80.5775329067113
12.829224308375785	49.751744077469475
30.67553870745111	61.1032037580705
34.478210781750654	50.31803602959961
84.63741071521427	73.30934894366084
93.0724338229575	67.17617590281631
40.8012911427825	4.813860739586751
82.11680296361962	77.27019553783046
75.67145600169876	33.640114833465
39.865413114727474	93.0764291779285
46.497184567199	1.9997124546977996
4.100476848346924	23.954070412102457
50.70348749963799	21.277781133197237
41.15750785186697	86.1347290563517
85.8603841329231	2.9413413235506947
5.04155222828655	96.12994835209382
