96.36265993339424	40.98084158413391
20.85876163008106	69.24282517679295
38.57851537527883	83.33001231978656
57.31777929285106	44.737776960398975
28.807308752068373	99.0744210101478
75.24667134796323	1.7814193454695815
56.88146318909995	79.49345242235644
62.876640311230815	53.43642031296869
40.824084439346265	0.26467156424936356
15.219259563450628	43.645116976814876
34.2578662307143	35.511446465407005
91.19593066203167	85.36802354309617
46.66785544986703	71.90084263088427
45.49392711106704	51.723322815314475
47.693633374343726	30.148997756995634
9.034012234725619	11.88768743866937
2.1577282778980855	34.24283057871209
35.94497310765814	81.37411580049381
38.44973463323835	55.038678066105284
84.00181148484465	60.023678229744846
42.10931009148378	7.871566221601234
69.80757518800385	77.87137530994201
91.3990305619544	52.87524857904417
59.33884243776853	15.927296905554101
75.65285650884974	72.26272463165455
47.160672467439426	66.72900340832727
48.06020699547088	92.79565541448495
2.0355257599807275	83.26717006474395
19.146417245496984	58.257917559902985
37.534805114846684	49.1937982827039
40.94463655230754	45.93209374979333
43.04173158907712	97.9271359337636
32.08773750989927	40.884006723612146
85.37025968375158	1.2324722565561275
21.39224862503323	54.117124155526206
48.35735652870715	80.03081794737471
66.3004356131381	67.88546172948718
36.580961645087626	72.2783876778115
40.9811115416449	78.62871302373276
29.64768836176861	2.30154144664384
56.77028035988582	18.941405093067086
48.706929349913864	87.98728343062695
70.41304977629223	17.486128388858802
71.81635091075165	69.97901191296363
73.42492481446762	45.91444249616067
89.13555857009203	45.937351883594616
28.63357461319598	5.698626338693402
90.68558601595905	22.9449076367916
33.11213792330959	88.4462899182532
0.04922580829818113	74.94861709870123
45.20734634064524	22.11472272170957
80.73156739899413	21.20350405803759
78.98317534818354	87.15651580802437
59.4528683737184	96.22355339077691
59.23095167593958	83.22059958240793
17.440810257281868	87.30322273436035
72.55234670909681	42.553888378998515
89.41650891262452	68.6678144049513
4.774553680072868	1.722513224353428
53.98697996082834	51.50402765316701
5.514947478658005	69.67773887241088
61.28172824916401	50.39191943123264
13.980091282694785	22.026063935852157
50.439831281969546	13.810675532965655
4.3260226548272325	23.768732226639077
44.61412675159162	82.47841751764435
94.99274071161679	8.489662115199536
25.32489962592237	29.474150369556394
7.933623318110761	97.11245926439057
97.78468141328428	33.58689349588947
18.674295437094944	78.759077101178
98.68664629746807	20.92752248677916
33.30061324295729	58.24348974432535
98.97988647365919	12.893319013038273
14.891133544144864	71.81273509661872
16.697892247975354	97.82002480565419
24.854041492415135	73.10582066360699
31.752380665264578	16.334042921745752
43.173391319956224	21.684336638011136
46.61984494132984	8.753160005021133
56.86698810488894	86.33870652881637
41.005130391041114	92.48284864691777
42.01849713839405	6.886085658049124
43.221860567426226	31.996436927035056
14.365098015378408	98.02508634832216
2.3997126454033624	79.48645319415023
60.89190994969501	97.11183361712584
1.3447987504460968	15.361034598018797
63.13087041772142	20.791930563824245
84.18466567302917	95.64117124175098
95.72647045880382	52.57927325847679
11.649063211111688	7.992622577491182
60.92613924096325	99.07910181983664
91.65467419578071	19.215812966561117
0.2626330679047606	28.645617338884033
58.5064963768131	69.8478440343251
31.160945468450763	45.41404484068941
37.95604981624291	23.894153130906915
67.22388163659815	45.056649284715135
99.6996113399864	61.19876981253015
39.138572576886155	53.777351242178426
34.6093130029155	47.252336115728276
94.86452231403126	98.36775353215465
33.45270682920856	27.725622551421182
82.78336639043945	72.05787624505831
4.09235093032364	85.2224559284572
93.78461308417192	70.42113847388491
97.30910349643355	41.48529307094611
52.01028952036854	61.10450905685727
88.31476672622789	86.06808452662395
46.99701718181868	28.774249691149855
22.922750844231576	76.79100865254657
14.50159563270571	66.62550614341998
20.505990341493895	45.20975514210882
31.626045384362556	75.28840708764062
74.2122407917143	68.87767296356861
31.000463766798326	58.83109642003795
77.97254631405981	26.96170937181789
76.34673166611822	9.40106604345029
11.555881917497013	43.72967577660396
36.72835758316305	72.80289818781928
79.34811624457953	66.62939530747342
80.39669068360114	25.734288186663544
70.00131096833539	90.9197674379389
91.58730054873415	65.76407217584588
3.4955284490886473	10.399550158200055
16.256403969788458	46.27521860267107
73.43831500977973	2.4476677560477222
40.82440843808192	66.54875846536828
58.738739056928665	20.761080534825695
11.160050041189562	48.98839022428386
56.72471665443554	12.6855996577391
24.88255593542579	68.75302118171952
68.97886091960972	50.93301086396599
96.90767732505654	16.389493941401202
33.172182972494404	82.25464008988588
78.10918076014146	28.856217887112912
