90.06656615439688	69.48632133681384
28.923209303120135	81.69288286335387
78.72079196530386	94.44428432984104
21.050851708484196	54.06498416965806
22.295702034986654	82.54283009478695
83.264692849094	78.6182642601944
10.991657169865087	68.02936544791778
35.9128854151909	96.45453861352718
62.07363928369086	33.43185429317983
72.18857813882977	68.85743724539763
91.48644880720286	62.194766658846326
7.538807943692005	33.602047200789265
87.58129203902615	33.25150323721311
34.06560103360032	46.48699255841521
79.15195652125897	15.206502695525014
84.66239908968132	45.79304825459152
47.173833013869924	66.85792769873241
52.80834369330232	95.7759609303221
10.540144974195197	77.30546485469628
65.73884655986913	45.66064807127987
36.40063870512936	63.18962000971027
70.55719746042794	94.50768529700991
0.18080799277016002	95.37500246524785
74.51611367107851	4.5134192008907785
28.096372257413183	99.1637836754524
1.093545542333807	19.573211432346717
17.862774351322052	19.140188881521546
78.34306684510739	95.3881010129462
3.470896978790261	79.86498677049156
63.039138402940274	73.52947369798677
58.63863784266377	72.42558857066965
92.81435446177369	35.97588076593241
75.80753158195542	30.425691310368975
71.81715438221288	65.1717530253021
98.9158299166881	23.259581839798383
45.65707745440499	64.77758411852882
55.21768727893735	25.09868272123278
29.046277404705446	96.17874091689187
55.994735342203775	89.25197912988762
38.95494743868261	63.08274508226779
