52.21250250849937	47.43696537214909
87.00312254396349	72.47330741823993
65.65304137298561	92.79362551449928
59.87491659674914	66.37879277140813
19.423360145666756	30.838780121167265
47.16207993303549	5.587392936458036
37.68837818941591	71.2425988512346
64.72006593124904	92.07704808951819
68.12956187042613	21.802041676735072
65.7049872939575	9.714160280726048
15.875000864873446	50.845041066536275
63.57152959159228	86.91305243736927
85.4855632137614	66.0954769049323
77.33404606362491	5.8592604006173055
83.66380968281126	20.477224009442374
42.68228953886882	13.040756622420268
1.6857333175314348	66.63231257676846
78.10274623587695	27.641571852892667
92.0214555422634	16.274236739772206
29.551246697409404	50.69423010078877
78.5611380506387	45.838652486331554
10.654678630977477	29.874324822436314
1.7701168327478811	38.63320211991741
65.77609975518362	92.97087376555685
60.89740940190609	53.24077795606793
7.790960257738943	79.60803601955395
8.38300064901052	88.19336898450084
7.248101566311127	76.58514245161176
20.704440213608834	22.321737763245007
50.72676826127142	99.31747904190672
32.47425402635952	89.74018348557095
73.28134042695478	5.475766981756491
21.336393835451027	92.22553353446459
74.72409777692913	2.226409316003486
0.871996589901014	13.306270559159305
3.6673380171261427	82.68794083413755
8.940918043239432	33.47389293119544
67.61087580190576	92.88299874936892
74.19266745533969	38.45951692824161
47.054181165093866	18.61973536163316
12.969336685063638	47.165398983664375
96.7999455360451	2.163278240324029
20.463377563557295	50.367522674012775
93.94993635320931	25.38260263804294
61.00493287108703	47.61987209320282
72.72300796635076	52.690631919101186
73.26542051042794	55.43382943912061
87.43697235309288	73.75514851693212
25.490621246242206	75.83056148320034
50.94861401871501	20.046154373442338
71.48269917593062	43.141526437956
26.51665221777297	4.145676683758614
18.80552038757316	8.680392353936517
66.86722511626925	52.49353930264612
16.953986931747167	35.55877903822022
89.39532107294556	11.53700275171835
9.61700747897558	27.46911432453799
27.30373730855441	61.29907703413882
45.094852744595904	38.37973126762546
55.23872322663278	95.12389984817165
57.59809348333304	8.265857853986825
18.886658570693847	56.92237462237188
78.3814248322687	91.29416950483231
79.15340685930072	62.362885602274886
30.24991108501912	80.66228620451389
48.295468977778356	62.35252351524877
73.01717885910143	34.445673095562654
22.206076569784017	1.5621155719900748
58.94908162030471	65.84472588601574
84.34935847680282	45.641171571170844
90.09932471358314	86.07017159842682
37.23664296376804	49.95678170455924
36.56479943396268	58.19789203052911
23.91086505260396	10.941349908932697
33.52338671251055	94.39461527587001
61.33197831636238	98.10700912354514
85.8791943746644	81.00040786473076
85.3764914276571	71.00349781763762
66.70431126849859	55.66316200196803
11.830528257097772	8.155377776535532
33.348470468666214	89.33661025270932
85.97676702171226	83.06491454352596
57.15720355407892	61.32336414515481
96.47777342947816	67.55889437571996
71.38194154098375	56.95617334990543
37.216006444900465	15.67894085032231
36.23823185969535	28.28265889550702
14.881562846526696	74.86918978519977
66.13843386137303	96.65169262859736
84.29358913163031	68.27335579890418
91.9688732315806	59.13969547424321
37.372016793751136	83.2357420406383
68.53254910390955	96.85084296706506
43.69339647335456	77.43101305249102
35.441099994761224	78.79525739076642
24.024119219045225	89.27251553729056
95.1597251328337	81.17899037210441
62.43603524554276	68.14582708092682
75.38492847560046	23.14429138566336
50.40720348081783	60.3240410505561
25.408610861921275	46.22018004600451
19.90880207810858	64.64736962024601
4.06578738676322	46.93578868363516
77.24587425025237	72.0663818743002
31.4006326903533	45.83830533611133
6.498221701220707	47.64202330196316
