54.16476647655426	65.10821077068489
96.37951911471579	98.62216290968398
88.46667720999493	75.31951603725811
29.398716940673076	38.22794430470234
80.91431797266151	1.167393473743672
82.88936647535003	45.697858697418894
48.168573417324	94.84145882770324
78.05120159898355	60.7549574554331
82.63258290601253	55.045301815631205
86.92812960855044	90.47281946832544
20.959661203240167	1.6161253132963904
21.209238399188802	73.64738225879375
91.30307668978635	57.10137525489299
1.481475215239103	75.91395778226561
87.71395121970784	43.55244483363694
52.97222174363784	7.151127371384702
4.696751571218427	6.47678561659053
10.398054408048985	52.75864019959007
44.28605218278043	89.72469027993068
44.71582269798412	95.52057588747063
66.90696029378859	36.58696410269777
84.25633824946003	69.46045650086825
19.223771643041655	26.73978651584474
63.07412428586796	77.42317935247569
62.01898950973342	20.59119406582024
78.71003112488488	39.74340641000214
6.514578085620437	93.49990886083603
94.25669017327529	65.10751667051355
15.690092306976855	90.50150677952125
66.43015636159106	3.3390829089090857
52.09429525957455	58.17397773918742
21.637208474710512	88.79974718686125
43.35852494526752	43.2985430109881
75.93260170207299	73.97869360119952
22.866686356184797	50.372504349345895
25.239656776558316	70.00042213906922
8.800044596681754	75.81795194752698
91.1206217812228	55.50721447407905
87.30025413924302	56.75458043340738
54.42969870492137	87.02766648567055
50.07057848469978	18.86022113016531
99.24970744539698	10.935409827738374
89.00678885032792	38.66476988889502
85.82224750512444	17.788970820238546
73.09391989208856	18.875091647353592
24.11837469324345	25.54066054599894
57.955408522015205	24.775375270709667
97.7027081089545	44.21668292601826
50.995763782803984	42.74554105341187
73.11042229429721	59.69482004814357
14.89228289675445	65.03158372502479
87.6755417304771	53.76765894579075
90.18437663735563	35.52702603098308
61.0556127500952	3.949386284215428
63.545571559028325	78.80475387663672
54.052613663324436	6.739223285847018
25.52153703119574	70.78756467824729
67.28378536949634	0.4557176557490994
36.720744365587606	33.8377489977426
60.21024822492349	13.78599783845913
12.533687368699532	25.418792424220904
2.3877732740627544	93.34287873422518
19.505445894805696	11.651781538876948
59.62830522732118	5.955573321396401
23.199005615325476	94.71385331457361
82.66302354668807	3.484458216307418
90.15777595541617	28.161258567864778
46.581753460295786	58.031491569613536
50.85349089750425	28.916471507092943
49.46976536261408	66.23007684989518
59.22110458166401	72.94254403924418
84.7454134999821	14.412065973205568
71.65523109946912	51.68788169112156
96.37910876396522	95.59540895462462
13.722816875701671	4.232487196073098
46.14753226167618	16.461191848695655
24.30870933430662	12.52705988701427
97.73482277188255	95.66239584772677
9.945643649149993	18.256068430825056
93.49173195889838	91.32213876565449
9.605362838031017	59.30737460332928
49.368380963143956	97.71912505071553
80.5273605474659	68.5361379021716
22.30194025183113	45.39186835762015
85.23383639217089	61.51394172063007
78.3080784997475	63.02950258125254
3.1231663587146463	30.08148714757096
91.20717399996211	55.97690436071561
24.438267077488586	26.315672643613464
87.4062390419138	75.90120764992574
66.53867114016126	16.758685675668396
78.08233299150126	27.825735404353612
74.2505398520772	88.26108611896771
55.3150068420174	47.7158592600494
79.55809773316116	0.8181148055266596
22.05599745797845	94.34187277673236
59.32631321574744	58.44663194879792
78.33187105243921	59.63562224361845
36.42576403934994	98.17503594285047
43.352141619178816	9.277885144675835
10.157087350738658	95.92646782405563
11.04100448389509	96.20949811022228
51.080640571994195	17.689223856367597
82.6064820784633	33.187679346445975
6.69714149677495	29.278095099288294
89.48848065338831	61.688966373059564
31.51114894004	5.866744283550651
61.76122521633699	3.8235880639737596
84.79044998062636	16.057013509004225
55.59721653274446	49.60503186499435
80.19587744702899	27.474950669843924
96.92270019382948	49.49698944167877
55.75565178643497	64.85238348372228
55.55860007360059	63.86872667372225
28.174747994885085	59.51874635907115
60.23897634523924	12.472007823195286
63.87615057995164	8.721867822358242
46.31538018192152	52.78098324339824
80.60218251854121	90.03132101620615
83.99268364115939	17.12322622767186
85.897177117651	68.22167451307291
