83.14552756233698	6.247080553469253
33.52443281575708	79.82628181295254
95.86868525823421	16.952548617751805
30.69006612504046	46.788761748335105
21.83164819021579	23.853585174740388
74.57199965516557	36.116197049140894
79.66719489914313	54.04776523320999
6.02486930069902	28.419914134410774
99.86122464375316	13.960053872646505
23.145159779452428	46.07318583947352
28.405603165210458	99.47361677227393
44.70183573185823	4.822388272758815
9.737391356259506	38.57142693455079
79.51134621015557	22.5040679187028
22.311371125844058	52.54572628836607
90.48687342115866	31.243540611328825
17.080473263239583	19.779392969144993
57.978106347772936	95.43061009838195
7.066665132343952	83.83812001663593
46.742667902911705	13.352365851608539
78.73405603406094	33.3748863600269
31.96271813237872	8.167028837072287
29.290502084125926	32.225530126190336
3.72544535072844	65.07612343873535
93.39901501188328	64.23038238847157
52.17746340390021	47.15011689714564
21.12650824868193	91.4338183814498
47.49981888190056	65.29150813524953
68.25674494819793	80.9126207403038
33.525744287065805	75.45243847232705
41.696222283337036	42.85763568865192
12.389328617203422	70.56069928233154
6.616958235607151	88.36909726838601
55.21221071825707	86.33651881989888
31.28142956296196	9.005493838462241
75.86342153657479	52.57435007721427
24.65656489070701	13.617705614337538
0.24523111722244417	71.5183532901738
61.14237573950842	50.06349300521327
4.178034684285747	37.17788462017301
20.858321139502177	55.297082294066335
1.2085155062339314	72.40522026602761
61.293150133591624	34.77783558229961
58.41946765809086	97.88047009467141
87.46471264459403	46.26811882323947
86.04763009387722	34.173063337282315
18.241009990724756	12.229369280364233
1.219704223986784	42.159441387525746
54.03932132372133	55.81573783137818
35.85106843450995	98.65673558374407
91.45626964260356	15.18078321792805
34.88210230023281	58.63893592333886
49.04944922157179	43.56364458299276
28.153357271558697	81.81227932735143
79.59203124961078	42.445677833412375
80.67262724841086	60.4769892384731
78.76799691772717	95.41514260644111
45.804275297465004	76.07237671638613
76.82354730801309	85.91718838522809
78.6136842468249	95.01272604587871
75.1997949970844	98.46774618348894
69.1135643356314	17.58211679181332
94.76296558020458	93.4882839930453
13.808671586113007	24.061010317778575
25.10074912810548	49.411706560069376
55.24982259945639	63.979671044728526
95.696665842462	65.44592810780591
51.8058424636468	89.83058544916325
18.46142646439698	87.97034448872894
17.230258186318746	61.65767375723684
45.448616284493994	94.25379378067178
85.6078007820792	12.45528130737059
99.41132357301473	24.14350608279824
39.957695704204475	67.14906653087095
90.48809397744053	58.54932463241413
11.515565069894295	54.28007004950989
53.88741206329104	90.78402894952877
89.02229620686502	36.44930489056488
58.58928483837006	65.41757272515125
16.66036338495277	47.72874847387961
42.14801703503588	68.99932392800892
91.50896412100956	41.66524817425559
12.140689860025011	58.7884986191615
35.024680683875516	13.68840540368369
22.981832889163734	74.02890421887275
19.758520091261467	25.351488772740204
89.92146528231255	62.91848024504492
96.20114609789049	71.77021616334844
26.255250631744264	63.635155277771574
