28.34667665195535	10.434187559499497
31.115982839331867	8.665027005543735
78.64204082418047	66.93153754255435
27.382368166831984	35.05542463701828
27.842718202157457	66.3594455715543
20.36416303915194	71.6550189897434
24.38793895135245	67.29465716654721
11.81631876805016	7.66129503462758
44.89002230029355	35.80679712061411
53.65857768224801	0.31063690960823065
41.35908739071991	63.594572711741506
49.25796478515002	82.89681554010036
50.169136001334	11.05656653444228
17.848872145005778	35.09556798710125
10.210124568177669	28.730679516641334
22.132438293906766	68.04423035031931
61.69941079317073	91.575861167276
17.067308164611717	88.94610848277698
43.90818971801962	5.991995807530925
21.99426397941353	35.07599024294411
41.325435293884226	87.43092966060647
50.5715079628027	40.91882952689111
4.802927842842186	92.58108547236895
14.663610343539613	16.409763465636207
68.10627275749735	17.211633554386797
40.67243540498079	55.56557619408971
53.36272473023034	79.30120254803012
5.713512881443195	17.755070510285165
62.001413040168764	48.916800107004
37.176058852428284	57.23810363061528
29.76350602600466	27.03628513146844
25.799000177799726	8.553407540812795
46.0359840103705	68.72419419274225
82.76335726479546	34.1100557743459
15.24157789050047	23.604861740702276
15.95283597029653	50.36706354065572
5.010633755929838	21.09952267035242
58.65499478861382	72.66705303840321
21.2893047286005	23.185219783928613
40.67385048063659	69.23079833087407
69.55546223161846	61.56613003911831
66.78129885524943	88.03073624114643
42.11794817255608	85.24811417098859
16.335684524570095	68.2846135680606
38.879570901006	10.369270920998751
96.43575345666116	54.97022706478489
37.48710322629859	31.89270942306236
44.108255830181534	75.85278299938881
23.649255333518415	65.96158900053952
68.61151455718615	1.9886380965687178
17.30445907572995	30.54506959736527
70.59458324438756	0.23599279208242896
32.12554265797421	89.74497717782076
81.31421023739188	31.12757051909083
1.3727492597981783	81.27548260609618
95.43408277987194	23.872480211308044
86.21664597156385	19.57297237472141
49.717378323934724	38.892903019769356
75.84943523285393	48.92359287273255
65.68610781069256	68.07719934308678
74.23617292630465	7.603305959768047
92.93721577240441	49.05640258316243
69.18317402677243	78.825344093316
55.757891983464745	54.214367900962365
97.03434272089024	38.22995554058984
18.52343060698425	25.475028358087105
94.64633345183587	39.84212701756154
20.82573886530398	82.61076971713352
45.615057727157705	4.9336697193616885
47.88724175135163	49.58389600733256
53.46337474750196	54.6970601670311
53.35256112590604	94.97602516174098
93.6062646319039	41.76294118586762
73.11461341472119	48.6049679532811
62.45204184177109	19.490755277244865
21.674827354559056	29.86187469898285
94.67315950826098	60.28619482935548
82.7271759322972	71.41465026107741
73.1413857501212	29.40421890168836
29.648058817382083	70.86222085411492
7.392576346190127	79.52588129791876
26.702390681785403	28.575776727575576
35.253076922751866	44.400105029934586
16.808329412791945	1.6782241565544198
23.633217310145394	11.962788295066872
0.6917501985321928	92.14181135338904
79.84626683216185	28.847223805257606
88.44039413348227	46.18124425871603
42.521072801106776	46.79621819902621
96.87543441890541	9.214076131000759
7.321033182846026	31.191292392846858
61.435997851159875	64.95731015381942
98.66015778425616	0.6643906212321804
75.00990936549408	75.95422859576246
37.7309181474071	94.52570372274842
4.710441715573155	76.68477479321758
40.367626716442864	0.20230679886846792
