7.656680196638943	41.12225254485812
11.859436639795163	48.9567940318392
96.90070476163817	85.31943184955763
39.82791937442591	54.00259911547424
67.99363820265974	31.2014532126763
34.377355011114844	10.217776900591502
46.19917708584445	19.569388182162296
93.97103266141777	87.72416119058197
58.64662479323597	55.82787268964925
31.73912985880073	81.27206949141687
26.939140941836605	34.0643042929437
81.51001277525276	51.62285564120901
77.34136626126346	12.28281045745031
7.006321985514852	44.675246724428284
25.018328645197872	9.40171176811745
40.4895800645957	97.0423970215599
3.2507390922571155	59.923195440962374
78.66216658202299	29.95382566928958
24.912346118735428	61.67094160728026
79.67692042258226	77.93700191027291
28.951196084012775	46.85313131855916
45.856041160441386	31.95883176922838
81.58725156590866	93.13739906084906
58.184498161603074	30.993042112733495
88.7562822785882	44.211731804845286
11.14105133895411	2.775687297275542
63.6606549070077	92.26798628331704
79.89667889750902	55.15511350733847
59.75738469362114	51.211853690861744
13.493754473467867	28.81980195086268
17.574439914679797	30.88248286130201
85.79959087173077	35.65571203735979
81.64063032165542	13.998304958717444
30.899960339863807	30.972232420277802
8.08790858936721	16.6811788529013
61.539699065879105	41.3918275001227
19.66327064294302	38.82088717274753
71.31037063058051	41.163244422611335
13.464758818707113	12.625676472451609
65.5246728775746	14.411216289935435
18.532658702729744	44.84364849353979
45.66537180356568	87.50100215699305
3.2272247102822837	14.98991719762186
99.34400447440925	73.46590096718492
88.53397728980245	13.388821081434344
50.17817803348517	81.64174528196226
33.77798207701159	20.336620260247695
8.9469587242056	46.26281387679712
72.63481839298585	52.95386480655148
71.0790882117253	76.72018302484796
37.91441707538752	10.95770085781098
9.774218497893838	96.42958054329331
13.694184467071135	1.9038874461013378
61.06167338368247	99.72044506120146
43.771721549380636	1.7554715986542568
82.20818733992544	21.629649087369195
67.70379090648078	31.573640529590218
15.751144385400185	36.361775302416696
36.23335756418751	36.23826810672088
30.868700379473324	29.86535968319557
50.1964025631624	76.04261694709264
21.8473066674012	41.531382839310524
87.7351673332831	12.515690551097425
83.46070506024715	25.45717655178984
21.439488959424978	45.18829847839471
14.23469301230611	67.01316535922528
37.633490201598555	58.66352966985783
9.473027952081924	54.55303981791694
62.80840331092077	82.39931506182421
86.54320559517843	45.76201233101467
51.34819462649012	83.67423462279008
7.05368188246307	77.26687864183839
26.093646425755967	45.16435146913545
88.20361315966684	69.92956525256405
4.180123469059616	38.09860335025929
76.329786805355	55.63640507620078
5.097672589392543	59.81751477214171
61.099374130928254	98.63387694013504
98.49168492851847	12.642815717376942
27.737678634288176	66.22726676912067
43.33276049499052	47.78163765773701
12.128895590451872	53.16413062265012
16.696150371530795	40.13800226294863
89.03945679029279	39.123994947219956
88.56750954215659	75.68425241678243
99.49667247029281	22.804392177215117
13.7418198340444	48.80946300047049
62.49330154235364	97.0042461120095
45.95045397529992	2.345762703639298
76.28154709783215	11.740179814029784
0.5765102016015988	17.01813864982824
10.66957903313801	99.1832730011032
22.60624625651648	46.019965866378854
29.341074783660414	7.87131592649547
94.15420044905957	67.38640069160525
98.67500290240795	19.942034502765836
98.7073993538224	40.14943305065868
62.204402762168165	97.65780707922713
21.79807068456877	36.34625846349253
23.954737156063654	6.2980224860159755
68.20602060422462	4.078967232284969
10.412691589662682	56.21178121730276
90.40856006002859	26.8450275652241
31.298609669757973	19.04085817666099
26.864004527596197	58.39589742846943
96.45335984230897	70.5172690678024
50.87730322808959	50.36937291217579
28.819048045625163	68.56358835145618
88.394885849521	86.77048529935878
49.469057091775056	48.62185419522931
7.804669530339304	18.558164217436378
92.72075323197498	74.46494062118715
16.337842526412317	0.02680215942041375
57.52108797060577	45.67481432648838
64.47875183796933	26.93385268518481
79.73671468097007	59.701138634712
39.40145350317719	46.32613338398136
78.90770344618238	35.55136728666387
60.585906210981356	61.759031239442194
24.956129631761293	49.050927288718796
63.56307153143772	3.220348447353727
43.761429582795984	15.134467742748313
84.64003035525474	89.36569824115928
27.415340337290527	40.31479928312679
43.710666355858486	30.823811244206578
17.58160375059954	16.14708679447492
18.524736938838803	31.260323882598186
22.420976895091393	4.699797823135244
4.89706673453183	91.14796052217645
4.644457078898023	33.48721842785487
76.69771103767644	86.62742320949535
3.34762092075771	14.918072400587267
12.207383742884282	74.0033611081774
21.38124654707161	8.44273476843258
46.00453791151272	55.44037647120048
69.72875587758921	38.53505728218308
66.96853444409308	99.22200505006204
77.63172843002106	64.9296530000583
8.861144105646545	80.83413960963239
48.849619677130576	0.08255009135088587
76.69602733510348	80.53691524489678
25.70663973795423	56.27605850448192
52.62942983825024	30.946045911683285
6.063403911243315	31.94608035218951
81.99639938540034	96.53806234445086
47.032665223689804	65.2962366927058
61.88152950200557	19.370063931478754
45.13335284585981	24.508248006971233
37.71045534263847	51.73564532620699
63.544567802621955	20.045362115698918
49.95999819846774	8.488772659808985
44.26267095782905	81.51969117707335
16.23418831029738	36.8428497657088
76.168219071989	93.65858552675638
10.4156812402055	42.43926113701075
18.797747393234808	30.404551534346602
24.699293834940594	38.06469255612422
89.47877381096635	13.903139864802005
35.48803310614985	50.0180699514449
32.257964766729806	65.86189460384004
4.316466206890668	94.51255424885562
85.10243145725633	91.85174014499063
43.83212407609436	92.7376206991886
23.164429152809852	30.046935046208468
1.2482778982029763	99.94318181383015
13.776610691442626	73.27945681157537
54.261384447104874	19.523879943048783
56.77543553415557	20.95367203855102
97.70066731054433	44.616983407511945
