39.65774291421316	13.090281288862904
76.431153420784	27.92766228625352
5.517111608689696	58.48187420105289
28.841235101120155	51.37824018533615
5.260801221939648	64.79706615722255
72.61809709872963	68.76360427740029
84.41589465484127	2.221176606726527
36.93659345350906	40.7520157145928
1.3180170119036605	58.49232336274714
93.688042939326	12.291738634027139
10.507962410295612	23.636797571915846
77.67274093615276	26.27615650078018
71.49345950640306	80.18253646660895
2.478311490807328	48.44734023154701
28.310719052161016	58.43412322451772
11.068324670146124	3.580210417930363
86.58686414440234	85.35538578924897
24.75719108274759	74.89952692490311
23.26931806266299	82.95472544519602
40.43059937890874	48.97371939996128
75.59828011785518	23.031610124420997
86.03564116244601	53.24325514826628
77.16190274476764	45.36974466328019
19.0315572530661	15.588358394994483
90.4710942833285	19.258765431200842
45.541964623410315	96.73783507342641
86.20406896999317	3.541656751426381
22.932616424461195	95.2357202036971
74.3195133144939	57.53998900581476
55.808473796927885	68.30188655931157
73.25081958700258	74.39249501262832
32.558942416525504	8.9065076611901
33.72364548825875	85.6947792518982
73.65163266113599	2.1128312038540042
57.73869645004016	78.5917852335927
77.91806640327799	27.31326100683138
5.858456971751435	87.48170148366707
78.86933532625324	43.84055281194854
31.04530468919092	58.11359448349391
1.8133097360656714	48.90348229532271
64.18008687680145	99.50191100592278
85.06953371630513	53.563022305386575
82.89094510479738	59.29343473052106
12.195120555027827	92.23885004116234
36.92388053181118	38.89525871459421
61.28318096600023	39.57403373533097
2.522656345338836	25.7597470362009
