15.240296060951042	69.45546496024544
6.555515505983944	30.023718028684755
49.44412579898957	61.00333408243278
98.38503355838051	55.17821004754414
13.675781315474445	36.31484406803737
74.69956464031905	87.45038321330354
96.88840484334492	54.19765300721831
2.3078444924455432	35.92807415104642
6.988661259499496	2.573852053146175
90.50004909264115	46.24488930327012
35.39640161494728	14.369714288550039
76.01284714464201	21.201530481518173
15.052743688387638	99.01354461872073
0.8704305297297488	95.03323109931307
18.707253661885083	77.85081514883274
26.979789948430376	77.8928930667926
78.71106512746722	11.666606766549215
21.787954891535065	89.7541926204162
36.81907267156015	32.57463520687553
75.09651221869153	74.8347550913968
34.586510928564515	16.692868006489057
32.844308569920514	73.75778986716914
5.693029690041174	89.742513601458
28.43531217476939	14.420583138795063
77.52287350182436	59.65319663021612
1.6176342336625016	27.540843674298742
44.47311165495367	33.9838740417445
25.420502818695823	72.80922941149169
8.94733318796309	53.480312321656996
59.02223673943959	37.15444716265757
94.25635981497157	48.40407592720839
17.48980301062599	39.692091987568844
34.00682379490825	60.93837338550945
30.521086343448346	64.04808518206849
75.81022767792014	62.75704655435198
13.132253115518754	23.40901623267483
57.559325278825455	70.02393889937437
5.362134871661217	37.00533241928581
70.6923299906055	55.9053560270777
24.372566727523626	58.41681557449579
40.679795488801474	73.27738573018988
86.63007317997108	76.0960587696111
36.94470586839803	20.845783528532536
89.71061408820272	32.58334483122247
25.04891189733889	19.806353172740067
57.448286358474675	42.93365550516106
38.0817510055105	19.45449432387949
64.86338047849986	16.216352988500148
16.72107742347161	71.61616684711298
31.723827812106776	58.034431062325794
37.804907279179176	7.545729762804321
72.48698432884362	55.9322160334342
75.5081954519494	33.71638250995005
70.59980353534317	87.91100828634741
30.87503662183815	16.041094112962174
0.6437786230444664	4.928709612949522
29.39768437899648	36.61205085844061
57.05847850933436	11.410574321071731
5.983839008102221	92.34585494166161
78.80509100970035	22.442899323558873
69.26606578381374	71.15485107560269
20.441813392804153	51.49768150472755
43.52199152034566	90.56814881259379
3.430153069821762	46.3206001468798
78.35755257680485	33.651522432764594
23.455516206913295	56.77552663727562
49.599636219359276	5.283583169007889
36.8114346685063	4.2442756625952205
87.05634067998807	49.35081696468683
60.55295988740994	40.412556027120985
80.73389392169845	44.594410584456426
99.89456130089334	84.37021003874727
52.0046658184958	56.91922037751972
6.651039857141983	29.111764648619165
9.448169685796303	26.507171309230294
16.48817606671189	52.47803775306874
52.26177830850247	30.977721870501608
3.3971533152004185	74.7695685782146
92.69213158549658	67.31125042771805
63.68490122770844	42.05965047931072
65.43437557871574	26.44539981562698
33.35603791016181	37.18933202186363
55.242774999670715	38.41358065191625
49.02462166143348	22.05815087236006
61.22985053849382	21.95623781219499
73.95843553835745	84.8852832929341
33.95768001231997	71.70039059406399
55.293964268642895	93.8875303535974
88.0809336083886	72.97580079894682
14.589548967575572	56.73950618226058
16.175559681405716	52.97837907938687
26.540177866208726	53.49871971669876
8.330205526731206	41.0233321403217
56.71403990523166	5.170549682412384
90.53031012780173	46.36747001789116
86.01712219106072	40.382544167881626
50.83874989751246	28.20624895539764
86.86645218177594	25.877925737740338
33.38354561667018	39.583447135434035
58.50124802743032	36.12304561004211
23.368214001627564	85.62518919345509
98.4597476095398	26.95649567711429
32.66208296835672	50.165515723518105
2.023199472871906	85.86430907385511
89.22509783764826	85.98081918026843
90.96308942522968	69.75907938464347
28.148821540071456	57.46578524190033
34.70890759863495	73.36200013269577
72.40669263587588	85.78012977170012
7.377111603433151	74.1057382171514
85.44015883665803	66.9856947886245
29.678543860780458	37.23051492421639
40.552665684266934	75.7503475927066
71.32945685598196	4.7471828667018485
84.13536343218732	49.836593140494344
18.42281143649315	8.460994802075493
51.43397320369445	74.97014119859178
55.601203638035855	97.35285629415631
53.90558872171185	95.2631714128951
1.610848246668406	59.56795700753141
96.74246800169178	30.195387077411205
91.44447740093628	77.14043319615975
39.81410753076491	73.58241643666342
36.352970180406466	84.60983265745166
47.37857632194733	42.75446461831793
18.23397453816007	49.825527595912774
51.143034055709215	13.705478783511428
70.23451096868536	87.60520212772444
65.425889416601	5.6552331279296375
73.54217141582518	22.735428569115925
19.627759900942532	47.1410199978203
8.099023433548169	26.76558161042064
7.382064139546762	29.538518290566508
9.096850190951267	45.754843956160116
55.073171961399304	35.60169082901014
12.681856560862116	44.67714254027899
55.36009406582255	49.47884555307215
59.9465317413724	54.81145481824726
14.432435248305797	55.11807912275678
72.56179443698609	94.42615205805404
13.321703416465258	83.14650245508155
46.0587804482173	24.75716073280538
