30.646577134899612	81.607527147492
98.11142417458517	33.59180080592389
10.79873501783032	25.90435572353269
85.61065052284424	88.53621911330221
4.114627762873225	72.53407239805804
58.57223906270876	29.624268126773245
66.54624465825836	51.28715778062459
47.96862093401846	94.57707644092952
64.29988643754766	10.317956458748123
40.24177936561001	78.03783523825513
45.101611321896165	49.827758599366724
27.76417366331343	58.91645267266379
59.04489775085231	0.9385070513248661
76.11963673010766	87.24919619859068
92.07157824276109	40.018261529008385
34.64693478093833	15.163962220063887
50.029088170541606	59.49510947968022
79.40222355994023	72.43999050074844
64.4801236475955	4.396998864636103
53.73175546771487	62.4860025942718
4.336511155231104	5.754234032491867
83.98474120929616	57.1343279682918
53.84228708475825	1.4355859357616407
76.1665388426248	21.529991736610864
72.93878586687974	41.69684493176171
0.42545130495582617	25.051424211996085
39.24823812712893	83.36972141773761
29.47580722472819	83.84565890909495
91.2198502503135	83.04609311408471
8.407849462461304	51.64935358099767
42.956647298851294	59.79070717187712
66.05649159808262	37.253705036751036
81.69548299018338	36.11561752729159
83.84750822476187	98.9604024827824
52.753251672408815	44.83897482426232
8.935625480849051	2.7267216049633114
37.240627549599715	77.71172847756097
58.955505212815716	96.82825211908396
92.1347249709261	33.5041803167234
20.325643246999558	3.1187504946845968
82.09181290349908	33.65901293392982
76.9308817716632	39.87491666325936
30.25433338903738	88.54506690014138
68.33582890758821	18.332262171872582
23.145131688963783	80.16270091392288
96.72893153999073	23.57703345761264
17.492319089256114	78.68098249366071
93.3421712061786	63.20881891894084
63.013524159620424	96.17562981103102
86.56363146733204	34.69390617314879
68.85306975046028	51.93780320266549
36.72187650365169	59.03813743514703
43.781086090520084	50.29769033967558
14.747095807569089	82.2073363792121
78.20032719954337	59.74643083885021
69.73020519499032	89.97869697016424
86.93955536811363	39.06958243030719
4.221665930786845	71.04662706345167
3.8089204735494375	85.71698914702728
68.98997659252622	34.19851986477526
51.87306933940795	16.499037288559926
8.502793060969104	38.15398195216319
64.85806444894699	97.76143915104623
85.23672380038882	47.58411219225093
43.45539602990793	47.23719601625883
77.27471220208953	93.89687615972981
88.77400061330239	44.1816724816038
2.292949199579142	82.27863182072605
56.45788722820596	38.36493430387996
42.42663355845567	81.16152238196726
30.00281512200017	20.833295667216277
72.85093114737981	55.03491336597036
99.1021912627017	83.74345266877621
16.05623079014631	14.502398925045812
25.44116270889065	54.08750787655136
12.772105202399143	0.9728697084202209
3.488387911880486	46.89958158987106
36.96066048221186	28.292970553330576
35.82705896132118	75.12044652941593
9.188065676891599	44.16492166613928
32.39860380832897	70.2475916059274
28.64389545165219	43.1535605519953
27.298976003664464	77.93152015744454
63.405484035260116	44.20329308033971
18.970568732057835	22.325263301816335
41.805912503599274	44.1310162270417
95.04915239552062	91.25266276990452
69.84606909695654	65.39631792038733
40.85398345437755	24.709274353677557
67.70163311124139	41.896776051096275
55.6010574576992	29.96672569490818
78.81242988597995	30.489735776473015
28.535244899252675	70.63563147819436
65.71173421881636	52.808287809756926
81.70891524895613	90.86040074192869
84.98396160272172	7.471926249021488
16.932782808093638	35.17773486439827
76.46293599866463	25.767456428927858
76.08027935440784	88.60377413323037
