70.41131841959017	2.423626921670663
60.30220745220674	31.602717154011273
15.364035689003453	73.5759775498118
61.088006105698355	5.825131720770904
43.50487331037745	55.671103760770166
49.92486500447517	10.452836657106356
97.8320985974575	55.78929275152304
28.240814482803167	37.51830559250503
50.78764859602873	38.017092354401285
12.552446618520275	85.07003118034162
93.82498490605424	35.26849773551678
91.56514712044968	59.75383051616511
55.75518649841641	68.91904561290617
43.4580844537328	34.35944500674152
18.661411728767895	69.7991602089838
82.80397300911142	48.12488029336114
17.078494206904573	30.000327268012704
5.689706224160496	30.146294275403875
59.108297972904346	13.720329226992089
78.90177093018352	16.587670661656816
67.61213719276196	77.58390521845963
65.68597449286327	86.21999480766667
12.125196272199146	4.520781693767928
15.846594148463133	57.135258111915356
78.76164116267276	77.84702469016408
68.85943656118528	14.38927484345973
45.87279110942837	74.60477716728245
61.72725449122024	17.366999335143852
51.371272580794404	29.35144309932539
86.73660189929151	7.328546044587203
63.37637839763926	24.92680578334432
90.57831507154411	81.9069187239164
66.98930407614549	68.51784551513379
13.233678383608726	85.80535421723803
2.201954325038069	35.00472534453753
98.40085859058921	34.80523650630734
57.893691725100695	97.36308698970021
36.65111700969721	65.5421065927444
87.50793326515056	37.649707240132734
45.520126569600116	17.7508215165776
79.53558846976482	53.912759135773925
72.13907358985008	4.127853672712501
58.154091314680365	1.4887500901482942
15.859410889294479	52.45062170109631
17.375213410976965	58.44885084255399
89.56966483894455	29.629306584432857
11.556300435703715	6.419544812336786
42.0695560418309	0.6779794171057119
21.475701193180875	66.28633903151486
30.185884591801127	29.895259447471567
85.65336002464315	49.14184959724859
61.3920516275566	74.57159942307203
17.790171855473456	17.068560474259222
13.049864531093114	99.59025332536119
23.178051657406495	66.60339977297694
0.11833469430787558	42.795894408895784
8.48907229165431	84.45812818302694
20.59535390635636	71.51198337645074
69.15806888272525	76.12650454276225
10.919514185214263	41.88481318867427
85.37125904131783	90.5084943072209
92.8129427628745	73.26191238859143
33.88985779928093	98.08251293066091
76.80702897530546	50.83218073153329
34.27202915406687	45.59750679677671
96.75159671969466	43.79763758120161
32.932201044278074	46.2648823992324
23.076536998286112	94.88010294210171
94.90977547555845	80.77884359358582
75.33344487051257	32.976690467437905
49.848813384944656	52.4125685788777
62.240605253426985	63.21508562240835
3.0550884536113543	73.76411058827405
4.466676467995323	51.249124223027586
74.53549816608668	48.29800712268436
85.611628754799	36.427417578626496
68.82266505928708	6.473851526642694
10.973650922839173	72.25877423925795
98.24939594331447	18.298450566942826
82.08342147138865	93.03994129931222
65.59927809067872	23.279968439186415
6.274310317602916	75.02370653287018
20.259201131296535	45.6496888025711
36.620732289435765	87.54953194398094
70.60571935184107	58.46179793976536
2.568637069761881	61.474486335633436
87.89162261333601	42.88077015545336
13.914921515276735	21.912469265045686
54.5319369118087	25.617910832370338
65.44374173367558	62.54965850417496
94.94929697315226	97.84541215950877
47.08961793378822	63.373549771226436
55.20124542622855	81.15728337587753
48.70414172252255	68.55417846001073
29.48552882267369	90.428795313466
75.61399761642042	77.04426320082248
33.19582464230134	91.15793192399188
6.101325869853735	78.16827875159494
20.81925688589382	6.085518925614863
15.226129747669237	1.072895932963247
11.345870110781064	25.477213836768474
1.4094744221190947	82.32410622450136
44.50057973128397	37.02631319919697
97.53836190667184	85.67011879623999
99.58348743317893	25.106396422348844
26.797296975769168	85.8783775073491
86.03962080934811	35.63141260442134
74.91630391960193	84.24710725126475
63.265639693866724	98.57888293734261
12.220946113127729	71.38018141580936
