14.411361842990168	23.179888514707958
59.29481206395379	22.82605205797016
40.878795173881265	75.2511870151363
59.506425628786694	96.45254659166795
34.29093669855542	99.90303299370058
19.325596877381212	2.538139525682803
28.842260682807495	95.49155654407936
61.68245521748719	28.766048865961412
95.66033922347633	20.504788858541765
92.98447728350963	2.928260097512514
48.55820558755147	75.9144134694059
5.228904984348981	4.709433673331198
47.02180285958545	22.191384828535977
14.235268696980741	67.58188251174799
53.99858549019838	82.66970458796132
18.642582997542878	22.80297647354832
69.08419731157831	60.66246157219162
96.50186615010871	68.90653740872662
72.68784757562831	4.6554437332346215
31.52541164564122	41.82720576370168
94.48508119047028	61.19742345625334
90.3792526750453	22.787270441689433
52.65958961117961	75.05568100598657
72.72994411959797	3.9520499644739915
23.22262632156108	24.769969470030173
47.07126780314783	35.74563819802057
49.10158690360572	7.455944104743106
58.93038195818182	73.53338915649212
50.22429383871065	19.769930728762585
83.37522410130592	82.22159383846193
11.22808933422974	31.485907548072646
18.29332708334145	40.78172045549683
7.351231706366123	22.157204262753417
50.358215804772534	98.80947027027798
23.148552430168323	19.06665757672955
95.84195100682994	34.618989856682134
99.24688390107882	19.83766158147556
9.876791092083215	99.41239639401083
80.13587165996064	69.631305164773
35.73679969510967	72.03661326059077
5.2062439674607885	56.779876417725085
90.0962082918627	85.21414461044346
49.41999050528606	69.7169833984934
2.6673405264504457	65.52262286806179
55.03598930266514	59.66626811477601
88.33063748266161	32.808704991678994
17.63964058645353	96.25809570027552
58.88944486892925	10.825741149772494
50.326613638874726	30.41813215387069
8.159460566426679	79.68525653669147
34.693807339598614	47.52445323704833
91.8155826952395	17.166639864419675
80.201231519721	89.97377840571092
9.998033476653523	16.702948498953972
41.91551180641928	87.39687216683242
72.16551672319059	93.00515291460889
96.0967089429228	32.23599935550515
47.729250096465194	98.01147244867337
8.39261690001174	29.564336094130596
26.649639975609784	60.77046061748212
23.20374864144805	57.41227183151477
97.85499370035497	95.0609783886151
27.13464530560322	55.65861146322055
92.48582793230574	90.97938552040695
43.8620751920936	49.71880850771752
26.317913253352256	29.970898474853147
28.198884243999846	51.98600547969535
78.40540897718472	36.57431121855106
0.33258727036840074	27.834118277505514
67.35703789540476	30.99749305003541
19.791594828945325	19.345322996744997
48.03398681315997	50.319097149131444
26.206575796653485	53.25492108439798
9.043443008725749	27.567972827515685
99.12203062517952	85.32300390632277
80.48823164672105	53.35394714255911
9.929657407688651	54.447716572282886
64.13959953021323	13.780883947173873
99.64986265149966	15.379024378449035
35.871414796241275	49.775089174759835
8.927991161547922	43.20150852727599
44.76164074352857	37.04363094917424
72.29884336728851	72.8354658180996
42.58816440235772	84.38797686221044
13.92678619726504	45.203539632520716
38.512743309676445	43.744275797820656
28.608338417341084	99.46792708006465
19.72663843793654	44.213496350218605
88.16017504029602	18.906860358517953
65.11177477119934	32.686200405714075
48.71711632194362	81.03571382166066
38.40796647926435	74.01055099666038
70.06020485806037	10.23022347599547
4.049045826078879	94.40634343963174
21.6763806969554	96.23947326648866
40.94406499066029	43.015088614534804
77.18247928902827	15.039954552629208
52.825612235023655	19.58085903252179
14.154998708099287	30.710141829626135
94.4862242372433	94.24030017042936
15.023934886746492	5.790577836895028
21.290486377267136	13.781199062241644
5.251129875083926	87.97720264590245
20.23557238072363	27.831143086633368
3.7255153585393885	65.07330776948693
84.79931327384594	77.79947035905059
15.056844435542438	22.218365702476174
23.959530043126133	69.42653422402675
75.38070791714178	62.478525082678125
67.52226984133804	73.08299361327674
29.278484365653213	45.79469591730712
86.98993217329125	48.02461471855201
37.48841225145508	13.476955544960113
