33.23514903059049	34.88994098667091
65.60930047899957	65.25102361993419
59.41012914206837	74.57885418587163
96.05578349061385	33.327802031741186
14.550692238218343	66.99885252023445
22.398117507712133	77.19408562436011
68.18442554920465	44.737435505731874
26.222017342724712	11.15624755294833
55.84530188779191	76.43618850515584
57.16237840792372	21.09108867805053
69.55056453492293	4.456173455996648
4.674454141947971	96.23958217880535
89.93169101616364	21.56186926491681
49.71084986270562	3.364223695131452
19.738612239418764	31.48424464019125
59.842208161120844	86.36944535600747
79.33228257014161	37.3563316885904
31.66523061812281	92.36833038712246
5.813027240491486	59.18234396671293
26.56529499320771	87.82846453306475
97.03270651692893	21.452995291430167
29.546864345370828	84.50879637923596
78.39535885763917	62.7687262283266
38.32223586340302	22.07391984966143
56.07384567603493	90.07871509412102
24.35909756672133	73.18889643929968
53.70138288974468	46.37946633784653
55.21856897128104	31.534238679217165
82.98984121358221	21.542816503990757
48.2657720893904	75.61948418533015
51.12337422771963	24.194784840643415
66.18994191086861	62.13622493165347
8.453941599506443	26.398318383459273
14.025482686592694	41.268069368601935
28.267798460558303	18.29099333534505
13.736956717396442	79.66528504209546
17.892902342390837	18.803801658511365
25.563073041413332	34.77255928374131
5.8335437038302125	88.72985778004306
7.308770530813435	4.78499062906409
67.64935477576404	85.58175113890888
92.64703737792209	40.71406079836915
32.497960595369236	18.33465792567692
84.77981109078257	14.99731379228283
43.59648929193175	48.081008845092995
83.97898220356207	63.718858680685045
20.53274565079993	98.09628950819128
27.206974467075497	1.0900742637085181
95.06373246868954	94.47498207071622
81.42303985021894	50.590686751792276
33.36269605244942	96.8481046144973
34.79704420691597	14.837919609039595
91.88131103302128	46.73050298713017
38.2784041170521	6.564882721286514
46.60628952177932	93.64474843995444
18.325950099905363	68.93468739366013
66.51691353057797	12.938608372713045
4.508953940403659	17.194143372841697
77.83662200481291	0.18492622790344804
28.55709286508368	41.0972748979053
38.90382671560562	76.2644419315324
86.79884757048407	80.13303145590501
99.223245010886	12.852617450263004
14.262463137815862	20.62142994934707
18.542591217595707	9.48362946160708
34.0499520164674	47.31237291787876
78.36678878951449	26.13225367852785
36.723156286619826	36.1175089841857
57.672909974904606	26.40185727804093
97.7853672581931	63.94281717756193
97.99992364217137	67.39536120794305
88.87750238935513	2.343933476481175
13.930483991474041	47.54557130520537
58.23442577651947	21.122246050599003
36.85333224894822	28.829434787060336
57.089828435157166	6.032511413021135
83.7730745105111	24.11581340258111
70.73046226475978	70.89377568169238
74.81037707991544	14.679115120998576
31.575492117983682	60.463422534856356
83.14566490173507	25.988259186490502
2.7837715568638344	58.69387956517096
86.5795499952257	58.315517049413955
24.161436424718374	89.37551199611453
61.878091162769685	57.790107957831026
9.000659861877446	3.352141865738867
0.8155378966374083	12.554113645643294
20.667094078865112	99.06793544350543
5.82807157503461	76.77424078439326
95.58303587746782	84.4600551437654
85.02780469708016	99.24002481547406
4.022106677130588	82.19365129243653
52.0636686263528	81.98688540811102
23.215887835023263	11.562189235276199
71.50795875289458	27.484124235856942
61.55109963296174	68.07333989259826
32.93872674375032	32.962984099454395
45.829926894429974	3.476815243016429
11.711469388414164	97.60778919844138
3.9384700713668286	73.71650679640048
16.893195054565247	8.68450890938297
69.7646473877652	96.19696056194311
23.639538016871764	29.66062997309202
57.91755058319641	60.43446838836971
70.55425581891413	28.343463615735054
29.271973089813486	27.713892358905255
10.720691100039236	55.24219994777042
54.071533285170304	82.22402917009487
8.92317282203976	50.4037447557564
58.58624747738405	14.48565486821025
63.40471442695066	6.18573097975349
97.93144043291393	34.11137107630727
19.265800097990393	77.15906118678022
82.11790842546115	47.82231289649407
93.23475193680517	88.7079272978868
34.86409881839416	65.76113755082173
81.9830389078684	10.046317271455596
11.109814927949657	82.68818950999602
11.93128367801145	80.47292576576191
43.19404109541577	6.916791586364656
33.52956415143472	4.833305916597819
45.51506458795065	61.69553452350528
7.079216013490763	84.3244523104006
71.26044193059899	12.37057574798499
57.254094953649506	42.67024493506357
60.84357402377526	61.110613500990674
82.44089226414287	99.97157764817649
67.85068196525297	68.52287478762634
3.5163798242795585	27.78881568166852
89.24258145675807	97.41104755633671
29.197063237156186	51.724061606142726
82.93364581019532	65.686280524132
16.16851411206931	59.890970108592
20.785232128739494	75.32432215534514
28.717227341896912	48.299549916221665
55.71802816164762	32.495027285309334
50.15460163776848	99.3009661725471
43.304856390889924	46.02843669480008
17.42473100341271	64.28990720535525
62.33147260603966	83.53983730232277
30.255394484038344	95.71458897109025
71.29692727016739	8.80097615826192
44.48259206405375	19.22161670600745
67.22804719842901	98.18853732922072
8.755998531280751	13.976083737347889
5.312368002034773	61.419501346393304
89.36124341096804	7.394296158295443
87.38629117606426	9.304688935032523
31.078655210167373	74.79578132769383
53.4524089565941	62.46443962825602
15.994227663006665	19.16424527528543
95.54785045922155	96.85013022580884
51.36777026184173	59.67491404947535
60.81642787059687	41.70071472887553
92.65584614191745	26.210110038939483
59.12492374801804	56.21684340119688
40.179398284539815	37.24758484507582
19.18509685218891	75.9700045886992
53.83270605991667	58.84765449903651
74.3153982331237	48.13266791850648
87.79433193863674	48.05606721196424
81.34649519469791	96.75850127468098
88.73512482344648	4.955420842524283
59.52831690195075	50.70211905421147
97.30208893399279	70.00769235213664
22.410296473519676	92.27596558529633
77.11696747723879	87.41019672305671
89.10984650677804	21.444385521021392
49.54606885322976	3.7754434721236962
59.52007164597196	22.401129090567075
34.41471109069276	7.248177450363236
38.25365043067025	34.76482290504557
71.08208184677409	47.25547331511588
8.999426834292358	68.43624547149881
40.904175277679634	40.177194011296315
0.563388467135395	30.352826202675466
85.877200964528	9.260284030914201
58.23244019648934	46.233216374320754
93.60526342149258	89.17252404369971
70.48626155876441	53.63808979336137
19.099155386121826	10.015437137262207
63.25786842186665	25.406971848459413
9.471957020235	76.00966622468941
77.79722198789905	90.09930156816421
7.337005825228937	31.316180940457038
77.45247358254316	65.41532455344195
79.10696433341197	65.87341026688487
70.75635504076652	75.07587784275368
65.70432466360603	61.15127116652075
89.82250805737705	99.73994799534266
61.85452823354455	31.96772864426537
98.27085571431905	57.43183837763339
