58.556552061957426	28.487174180612783
95.09652215555062	78.4278519240334
27.094676467582225	50.47770471001187
83.34078521875867	87.53798685437573
10.260456445555711	35.98995745943758
45.07434093694782	54.234591595319905
96.1472190715503	33.8151035279358
36.22325585938917	12.80615462963366
52.8288439086019	78.83719898449624
40.3852660190584	24.27675600601935
60.36782852963887	26.026736715010536
64.61198481700764	1.6986841803977581
62.33017847622976	58.053545859051695
33.49427816899231	35.72534984360743
16.830055661815603	4.037266172112474
74.72694435510437	77.31140241207811
63.950272096973194	53.178346708062094
96.4312923099463	37.050027531566755
61.72165547138702	51.80461658095447
32.798433483067534	12.578697040024755
37.891436897760386	93.94884527447726
22.940518996973303	33.44846100457646
7.604995084641974	53.13694748787684
16.762752081267983	63.33159828689367
9.820531181841819	75.00570506497716
41.702472149111514	79.58147382533096
22.339815412235666	34.95457429293928
21.58410545377285	71.52437968176608
36.58591568101235	17.318770443364752
8.403381425940015	64.26721791202442
69.02840165167838	91.99690993844504
13.016360296252316	9.04078984698885
90.41847141909531	10.448936564217803
88.31863790692933	10.774394006136367
17.949759158556645	40.89587082027182
77.99422172705673	78.87281241525764
91.84781659767629	36.97341858333728
43.79431604908144	95.72146719010051
60.23156822777517	56.05319440580195
72.92779523584801	63.81638190761832
28.30405342372907	80.9367048573278
71.3989143602222	86.20340893033972
46.15153450898282	65.55972720389384
94.56746096216811	99.60013450932473
28.620071213701227	59.55097071567731
18.475160192896322	98.86000090439259
36.82081194421879	0.5739812259674126
81.79148921081344	5.985559131805451
93.16626956853761	13.002126962643601
40.89512579529667	23.494460111490532
23.48600752213319	5.464407394126969
86.7775612926762	2.0330065538599507
94.36347831293766	99.14147989959896
56.46947137917506	62.64383919991731
42.27878104250388	71.52274346308872
69.55575418300685	59.324095340620154
56.687605782902025	25.68824315828896
2.798808728646718	3.1415869061764967
86.73382918998384	39.256421867366306
66.68745294850311	75.70697059869296
15.848395248009506	60.79946630996855
15.135238331321975	34.42050944756904
22.78326128216005	30.77382431990684
86.3758426593205	16.43029579746368
28.49477036403252	75.23250713975025
11.787286168577893	9.392499551566802
58.2144673044537	99.56569369310088
5.241914887671239	6.980631481560062
57.227321681882096	32.40581138514618
89.5717825816674	36.043068020827505
44.99711861627712	66.4081499483703
69.04703025096313	37.369664808904176
3.1278794491020445	54.01928235942898
6.040768207239832	69.26333477550219
22.284323797988716	62.0078581474543
58.37030995779992	57.953574918576045
87.41173297623166	51.334577212891716
54.423725941579036	57.584059434168765
33.81710752747223	6.060825054839669
85.92148637269652	72.15494209224073
73.73749488260567	61.92433132854196
15.362535951393518	91.12286852888812
36.42037752122018	57.08631059606426
18.83550977551679	51.44631277380667
61.33131616049354	82.51050516393394
44.25306410524098	60.448455322983044
29.56254230463048	77.96847808874458
68.63334882162458	75.30216587438292
97.52434010149548	94.13727305748006
74.72296110448795	81.6603636481806
28.43699416189197	80.80650754747239
65.86889521775734	56.65328139282312
49.3955532902917	41.31378701060784
82.75151256620373	64.01111782700593
71.21636178884606	29.2356111582479
81.85911604702405	45.371000759108426
46.94746025542603	89.98049187069078
46.51059497612023	62.12206841608965
78.80950042814061	94.87775569079284
75.88561740492783	62.3939938601776
30.952221350527232	36.477816585606234
53.934901731210715	91.99667938926657
43.85179182510587	15.039771781367882
96.28968858995104	74.12722218339528
29.320915719798712	2.0239389901709925
54.379055675534985	84.74911106060107
7.569817429053671	54.81795820466475
68.74136579158235	56.52445876568297
69.14551206785086	4.666268729524569
72.78035538543685	56.91205749620212
41.547152643910664	94.2893126863415
62.803987797932	57.61500859723553
72.7380640689938	86.91762679885974
14.723236681233498	72.9065330352879
43.28493616084096	41.096862317555185
23.70443570063988	34.64882638062276
32.04752132431054	22.58174227505495
6.98319548308498	10.05836583252744
31.007142040893786	85.98242593779075
73.32923076824697	20.128884538470103
29.18588643479727	19.128275051668055
58.553612312988754	16.074914095348724
57.247977372165906	44.226359342669184
55.665146476910245	5.917695836228132
7.822068912495084	29.06082678510139
94.03357624913518	38.022986601138264
90.94536140605383	94.04705678439177
85.72439152911174	97.25425207799994
88.05200168628237	4.174449980520311
7.599591243913128	72.98766969196045
29.747878470281265	94.4923832459843
58.24965614583271	47.66226795867041
37.474751377894336	99.31207550230296
63.82542137333053	86.29510515331417
13.9052741763815	96.77983033806854
42.420438198058065	33.471708390335806
62.57770341255573	76.24729427005667
62.09473509076804	8.976569426200086
32.07645063884351	40.33096934091449
87.12825446614465	20.09454713423997
31.5359127653722	35.646201356571474
