91.02503550020265	42.31856269154408
41.28206576705033	60.003161764967025
95.58785248151524	76.83167094514856
65.63265195628323	3.7077107789836194
53.60995488465725	46.9911197550381
21.176362029012118	10.5536379367145
41.34305233773359	14.589017345110001
39.5163303316057	14.392721358978754
20.30399951715751	51.34526327610747
82.51625853543595	48.1971309862665
54.16699741851553	78.29245993459773
12.943546414267438	1.5011112632035806
22.933534764925056	69.99314621603638
38.96082474579078	39.80788639882622
59.856474633590175	25.43139583750059
57.825170327314254	34.13768003708215
43.89234184315656	34.33390592054827
42.14937983556663	39.747037710835656
70.05897889248547	59.78035580291265
25.44477923504662	55.24896070028189
72.24952148366359	4.09609146432569
91.90884035482148	53.39834261330115
41.969029548811946	35.28046762159607
40.66333817025496	41.26445035675188
95.91546753917419	53.72087437883759
56.031906038221514	4.161630185945908
78.30727251794328	66.9725188058315
83.5287671182902	29.90021600898438
89.90687505572936	88.60444260432875
52.27853898053383	18.838430588872246
61.467077910516025	62.14998824320086
2.645425128166523	53.383780978895956
47.18708320484346	75.12080221238296
25.368898045970145	97.18745503841058
85.60443745159647	64.676554206247
71.38416737964909	87.88662867346864
69.76144739276651	23.984606801414788
59.96847637543053	3.1150767886736763
68.69419652702979	63.20330139919498
9.13831166542981	62.30231356623273
95.21629547343125	43.67212238566004
39.10871763975662	21.93659407969485
86.0932156272082	91.19013159601688
24.037978090525847	1.2047587017422923
15.176126270066048	3.400724477214734
89.03649051857346	77.28449116157103
95.26410402796819	13.25248159948924
94.80502487531895	99.61514845622081
6.920543839838067	71.00814143341555
99.30110895028133	16.872481714853194
73.57072654702095	98.30331582712722
41.59326045991979	87.184825280704
76.03929580711932	44.34642802228544
40.4444807046425	58.497909976569716
50.487188375012934	88.62267187061079
18.86801372386422	58.58252411031765
12.572483050112782	64.36975545731781
13.759680599334734	88.59818975210551
35.427710164250925	45.720660197869
57.15634378799819	97.4043796378103
40.31725804472107	49.260188484389204
7.787626793879488	25.5443566860206
54.44416967238962	15.98351956821773
68.54508687660064	39.476400631156984
2.061542153070839	63.566064142596446
42.335666686581504	4.452281792212698
22.642064843984755	10.668035210103433
73.4188845965057	83.83763830205275
70.49095596052346	1.257168168919387
7.912647859492283	92.11707716104894
49.20695076884524	36.162109709366504
68.19946325297884	10.12557935690631
14.803758075460493	57.50273057606196
48.903589794097336	27.46543818126672
16.066042096136567	20.458604584524476
85.7596499948072	99.88419971036583
20.46970715225589	0.2705858038413389
51.797257468754886	43.362887270398375
10.765644949945507	38.61487268107696
62.98970649905446	21.1484737030343
84.79087568952313	96.43000416532004
90.02284388494593	42.907681989033485
11.906255179091584	15.150297430704661
14.927336862520024	1.6684175620170438
29.660867533260095	30.85367758350872
84.50574116022396	95.56224658521518
52.15341663892147	37.91928271568874
4.1453903930169345	86.33813426291891
23.37269717929654	36.46103116514999
16.922521992578698	6.244252104443005
39.63576812497514	76.20183812728834
5.174267710109481	47.92355733609259
19.937257808988164	15.617478587945588
84.65935308348128	9.901199262790449
32.53753406369204	18.598494327670668
67.75847827394645	72.51594322696678
90.4614112843665	50.29380144626059
81.85043154161995	54.49481168008342
64.54860014695012	4.963571643154918
24.231705020764828	26.64932383899047
96.84488130073254	69.98089625152527
44.82621487200753	84.94855057437275
71.7476795708951	97.85228147482451
9.154166653397144	86.08811494038308
0.7827761084898355	85.71126358422374
19.539336540790252	93.9690218319939
22.395097180093614	21.40768326350708
77.77900858951618	23.869839508254852
3.2933281912499	90.9373569191375
32.00598542552908	37.7574395993779
65.84483302489382	4.36237837656952
53.06934262239683	45.601047318751306
28.84706201627676	78.90706224237226
68.42775544840238	12.221609245238618
22.558307313967063	71.10528301869154
16.92234690324279	11.64919156824814
25.71565919949662	82.78927537076743
20.602638459866274	60.96691738046158
83.54415022520352	75.09746347902464
13.941823481505988	65.97059119626668
29.832775259110534	61.25589630287996
65.68412047555576	46.241884166158044
22.78182735926233	8.35419256121861
61.46495118496909	78.23456149995175
69.40070010497985	42.050116541286854
50.55598164453641	27.74884604086646
93.37697119805708	82.19664782226279
46.59374884499247	91.17533448827392
38.244705621441874	14.055021866954364
14.368483564477241	78.22224266603601
16.517072620300212	56.791977806948005
41.252931316015285	56.466433297253495
61.10912514709843	9.954646830996495
35.85011315843501	51.67202047577909
66.50259785232274	68.90405942997147
