50.157676795437666	81.22969580297625
34.003251503656315	90.8825370491497
22.98766621005296	85.29016954312533
7.7920887933443534	98.30616885430629
73.57161642989881	3.770354452685354
35.792504277311366	3.242309463916504
2.9654006675285505	38.09362311240408
51.17278778589407	31.070516318677655
85.21874820555728	29.63302402803274
33.453676054551806	52.3890415373614
63.73211736625003	44.37023684631429
57.05030614092732	79.93909082667129
78.8406729699935	9.059488271999639
97.80441503189434	71.43561913604809
78.93992863206901	42.89308539662697
21.235262523837516	3.096905560080654
24.033606054399705	97.77374421245226
71.44511252664397	46.01037042104683
18.543003152127802	0.5144426092257293
38.319547796805374	67.88806105504146
95.18743859677235	6.08724296880837
84.10766990995845	76.33863901240409
6.4714651543276265	87.38234140618457
42.752899831433886	12.482322953362079
89.59573880583118	98.76524043178559
77.71658062626807	97.08510845278302
33.231578949137806	99.88211445204074
93.34626746522237	12.192747657821112
0.11834034649974567	54.842177900550645
24.161314054220117	9.608315887575635
46.43378975001172	1.5987989000227132
8.669523078678033	18.307986540039355
2.230142427109283	62.07140740368483
79.89962796948737	91.6349785593996
18.1316915204047	10.529567984071841
52.828592427507544	33.135427972260956
68.81276585452788	88.00139370994667
11.156911231855016	12.882661679703444
74.21766598793353	87.50054644963508
44.03658452256028	95.91363993016017
52.42363793045969	36.033982487022186
68.36752231229468	3.063807862320689
44.803416057817294	5.384022181326142
12.040653709067806	22.066555119058407
82.47497787723084	49.378482681335825
19.97976669023337	67.76299142079097
69.21872785726507	95.02845528391757
53.37399238884092	49.769102738117276
76.82366793442895	3.7680219479647947
72.29235037267698	5.438292610121243
97.69454153374718	31.02289556819544
82.4909332243889	66.05059327497555
12.531975807089768	15.509872454111163
65.03583477846863	58.614738470535556
84.12417055179203	92.36609193077602
46.81098391082388	57.100656999292
53.67562610391934	43.55420133845047
58.846243289342105	42.949624421731535
26.86645621921745	58.31833894173823
53.520985962782945	38.69596448134304
46.250370854485254	83.0934077833076
9.704855693624603	81.34789730274834
92.95225014021273	41.15654967519501
48.13730940819888	59.174140512939
25.198956401498286	38.56288801106433
7.850225023766	16.34457397526492
23.20474772843948	48.03340173056807
65.15445136188033	68.5187069475932
91.87079835460673	23.33346814027697
90.79029108250505	37.3273150877946
42.157025667639424	23.41102678819228
47.69246229255313	36.51396547934161
74.78112217690044	40.57504845444586
12.978415746479332	49.08822025438858
33.555054798169714	97.39202405597045
12.766561261878062	98.38304930663504
9.30563046847258	42.604511737470176
32.49932518716467	60.355250140930494
91.01285624964005	66.855877536755
41.48203503396353	3.6671613720311025
3.9184661746089366	9.963675004259109
77.93642930459195	24.202633804364027
57.827525854013274	58.926254998274615
91.9747484042147	25.559472499068637
83.80454999290272	16.762576309797993
70.20404152959053	70.92211488112899
97.15281053702422	66.82170759158498
8.1752218214454	53.223660822773354
78.82728548172982	25.74440776231004
38.488970090511586	74.79390829968811
49.7823583955513	76.04666767973343
52.007620037284966	22.320180482083373
19.846915604616544	8.250062248979685
64.40407699000484	45.698268878514725
6.829386950408867	3.0849987498635656
53.63056319466065	5.826832973768903
39.88034340052561	94.21377206005641
4.0388267658776345	54.68182653776182
53.68073104660003	59.770479688530756
25.038199522070602	32.80178810186385
7.2212715868839155	82.71866128911239
13.309800972136177	66.03363951886791
77.08390347351396	50.0506214579631
53.11271012314723	58.79909618321635
27.626606723557412	32.81046851899452
25.56181494800388	67.22751043752491
38.2131185721042	74.81309524943657
95.90064997455151	14.93169580126712
73.30303151552123	63.220957867997875
9.32850892868171	38.0729701020453
56.93070109672954	67.15004689352102
15.433284850680383	17.245056253616255
86.25583607804747	69.34572124851148
44.168258908961825	86.91103663480115
63.8519094368443	38.01544635779472
52.98472905153038	61.90556706309922
55.726201594758905	57.00033080289229
66.87421374173941	54.34835839351664
25.25310721583728	5.086708381292782
19.612333322207586	56.9348445380005
61.68596052931486	33.191641616192534
18.96222121903862	89.3261448317231
32.57064703908213	28.979963071070358
48.845975394630926	83.34662424238603
19.697954782627313	28.03587456818546
38.064231887938625	85.81618779349974
49.01013239108588	97.36623627537982
74.88802644806003	1.5376081362167615
16.64574326495385	87.59217499441849
48.14869911994312	66.17407033549844
39.00355237610249	61.5892760181596
45.835896169433724	99.08407421845858
9.550669373636989	50.631277267783595
63.86270376615229	31.202944131890963
30.12501556507955	72.23162526735932
9.832374988786563	25.88500065695071
76.52577167246606	74.077414434576
62.9864990340804	57.14367937151069
35.36913727387121	52.371047674601826
36.06335903840747	74.68922703113238
29.67022421039497	69.42245989448548
32.91384703475801	2.0060319431449702
61.88054064571167	68.37089377608075
23.042970638854754	17.107837197612508
56.19810488736343	89.56261173119758
45.68373237722119	4.42610320381267
