9.491953097047979	32.944418407978574
15.30902357925572	7.9717316076064915
34.680221457015904	82.85532971780871
26.47977344950241	0.9343936727208013
36.14579900710982	29.694684389054437
8.863831089388674	81.04503873161715
34.63756635543136	96.27705902320294
57.44604115399684	57.15976125493718
49.04245586717404	93.75327545576022
1.9452113867359566	60.05568747942045
83.19372252277456	90.0674642378815
40.00906183314355	37.22926815596325
34.953151675586255	35.71805463243428
45.387444711734126	60.96325546274753
12.789432782053023	32.315375922485465
21.880058360798927	52.61668368461234
16.039850082531203	88.03330192714466
75.42360624251518	75.74786050706437
79.64829274148943	21.94011980064323
37.972367801210574	33.2027990872051
11.252729441490173	62.709530324303216
42.81382039026524	23.037724920754734
21.756123705926576	8.52129547741649
48.6869519267791	85.69287983495228
55.26086008179308	84.39639007566494
81.5898083539393	56.675316681847335
13.893255926190706	67.99338611000671
20.507870156900974	17.794589363684345
44.54816517500241	27.237222029197415
95.68495645086108	1.866228124807101
36.950088567787546	89.56331430595695
6.7598204814922624	4.521108631046933
52.102486883672874	89.27144794441215
38.39556847665273	30.36803705709007
91.02978997545395	15.164865071733026
14.530234520512442	63.228973272768386
92.54714626616703	59.560665445564084
95.8133944057193	29.303356712902772
75.38738319692818	62.78853504829146
57.940689402313126	83.07456174211272
95.97344620742668	49.142561877947024
81.78502529991884	81.36026208595538
26.639884203417953	77.57572447311838
91.49241511006025	42.17960723367311
74.55118245774663	29.778497550056137
85.93500571962525	62.29467464403701
33.37002935153501	81.35516080327471
8.294864409101766	11.309484049580554
75.62334184641483	45.5696275243734
76.13701877603029	44.17215132948853
29.092872596218587	52.073467007077355
11.26865129763045	26.14601045544128
15.00522256504021	51.12476268706306
14.564127810540361	46.71473008020946
90.93943607340125	58.91437703095564
65.39356047350294	12.230044148589547
65.6825958697915	64.84010542469947
70.13365736578551	53.079901253772974
6.859889226152971	33.40241723758229
7.638182946384864	68.24340133176084
26.52836209412255	96.26115944496644
0.31900600767349463	29.52046052281444
88.03254546949343	73.93373257887689
27.78540927971639	37.20359489085438
25.535198378920665	99.7666323009123
92.13925465109274	73.66371633614057
35.81059228572704	4.745694690964653
52.85863830150442	47.371910664640716
84.70641862581398	13.49098671224943
22.88019672685605	57.37342698260149
34.3972985655153	46.96806496173993
72.49049827777773	52.32714153611477
57.62362531508963	57.88068616679875
31.830439417047018	51.020284349695864
63.37237455691237	88.70456426504298
38.59286555495138	1.347749653115593
28.624397350017738	82.57379036088112
22.262029907611534	77.68123258296026
49.16496211167818	13.087293699508528
51.020663983793455	18.24993321323669
63.58768359789882	63.331701836353794
83.41913491377845	36.85519174685376
90.17353250219287	48.309546239419745
95.15858554570494	76.83512199641761
97.2758086670908	88.86553289091206
91.21761145306779	85.81388472730804
31.964135167138362	11.541084135004642
99.95414851495609	61.37615398437444
96.51626148915207	65.36763834755958
82.5229115342409	84.50586225548889
39.3097347139504	72.11019678662116
63.80964293481968	62.734503136179676
65.54756240322044	16.44038390264472
67.65751219561344	94.3747738607451
41.02752807141991	39.226026352690255
83.81342158048363	33.88011528360075
19.97030489008572	77.82911241410565
88.17648522400653	16.732241181761466
76.48330637878205	40.120397832668374
14.91579027053307	11.90136178772937
90.12332517744863	80.23891700740141
45.34159351357992	22.207725981339266
95.76770230933211	45.17618387981411
40.78729774052625	69.55790303895321
66.90547330342703	1.9332476295877754
4.156844107934809	0.7021891973143957
74.14521016417679	85.38410194030834
71.57203187540019	31.44236295673434
81.78328863955275	51.4267978944843
72.54049135502834	10.668875996392968
55.564643135796324	70.87658763865358
88.66691815923784	97.8548404452017
17.97986729528015	29.58929791450916
97.0552108719214	15.715543801699516
46.93306602784346	82.79823761086651
92.95032215938429	39.39661704728445
96.06142082564718	83.08612426186258
42.97832419431457	40.03711135790918
91.01175181291526	62.279104455360304
44.0564133050498	34.95548495608336
87.99842773177281	54.964628051222654
58.637423016331816	11.850308562335488
39.004308177370625	14.02015473200936
53.00721714329407	80.9912747027779
60.74615825818191	18.664231862374592
80.9151935253006	43.744770059996185
34.90095375445684	48.814344596264846
19.367829198645158	56.39063293731661
60.834648238392845	4.053733821729422
82.22487899547548	66.1515346098004
98.95693406740858	43.30321389108258
59.62042649916032	18.138852545469675
37.370590949291326	19.38915603850151
5.27795651754438	66.85486049762896
53.97165789953202	36.06999309161344
52.700013707776904	90.41489690278476
72.48868475079915	9.359833179160882
86.20259479913291	86.02562646558133
14.104599966034147	87.3899457101767
19.6882217883519	38.09337028791424
83.31338963243707	31.841427348982677
60.290389866791905	74.30191013165756
49.10748614123521	8.875422959570345
21.375939368050425	99.54394926984091
79.54287544358054	67.21699964304952
60.373102877761184	89.72080602942735
1.4762029414195355	54.91867552885201
99.80896168227106	82.90591521980333
