35.1662958062432	7.989438831990137
50.31163411064053	3.236676615031342
53.34940897860502	37.23318481203967
64.24683507261369	7.799497563866709
94.3562072417206	86.85958874586782
43.692093594986034	78.55420569321265
66.92480803870694	96.53233921632693
10.894365116568117	91.60431171814105
28.67414852637189	55.819890966507714
73.91430586504698	25.678839610623704
33.67170361072921	59.60602910493501
43.538396170699215	47.20202396851095
27.345044494033566	17.380202756041484
11.085687737063587	99.37062520481064
62.22025894236134	49.60084224326062
99.508205593126	66.05944249650844
27.096443505102428	28.314044403914284
74.48714773150465	95.62888803553385
56.9534222566582	5.819302345052558
13.793843313255561	69.880424265324
75.31435344512707	59.71506821769659
7.685134106459913	8.930500909892103
70.26688074893671	51.71693744235382
97.58575829953601	4.986871920918845
64.6016503471045	9.747191201135008
26.183157131518275	67.76235255091541
11.146730780851088	43.59557831915863
96.45405606526474	36.32961920465618
88.9923194799475	54.84422175919218
33.25177635998222	74.76554924057356
87.50659306845156	29.704451091054917
11.665681595791433	73.00074770362366
20.096120296237018	80.4296462478691
19.823108442312233	81.14098452658371
98.69219764222223	41.20494995045999
47.66399708703625	12.811717164952407
4.678259381808248	63.89331196270198
80.82983657304094	80.56847936345768
48.99718819831177	18.96063634990892
75.83937566234385	26.887930873501443
87.06965703639727	18.07017098151157
54.80529162949228	3.0769065217551628
86.8936851576939	44.032632699622354
64.09491414491919	3.3947908167413554
89.97639340464355	78.0122240753871
46.16985810818562	84.66505889306602
31.38948130397854	63.61559160000853
10.240182192087621	49.18068463916258
30.022394555100806	72.87510854575567
90.54296055781084	40.762243456313655
5.019675559166881	20.640197355288247
50.44238277189653	63.823020689707754
65.5707821878497	55.854250912932265
68.32117333458744	29.664656871488315
16.662428311551693	33.97558028002325
11.415997711813908	37.910555161628935
43.50205914998404	34.186731582412975
71.7283249641892	83.55229108537988
83.134512641719	3.8133859037997375
52.54523526876067	96.88557063358594
36.67334514146192	2.4322053047313275
83.88223476273801	46.5663499440759
12.18115346813018	46.0451254419499
11.659832238791845	71.17839312728162
45.977760982964554	7.256046401918659
83.7474744488669	57.14806238281616
56.93168882928633	68.90744065649149
3.23398735325211	63.740759279061876
41.172638107315265	26.62222436384608
30.81090370274534	97.06284327620057
55.9529173722708	23.190607808600593
34.389305021002	87.65723817482389
31.283114187530693	4.9947128208894025
42.64069858660218	92.12689449465368
18.776794118499616	75.32519086170576
76.88067263879891	18.457775541120924
48.093406858353646	40.90649663144846
42.82641576832889	43.95044146595532
72.29340762162761	6.472385693380788
56.16945732040983	92.83158921756319
60.92877862425167	56.494341560057
44.876068023303226	92.95675145795872
60.85241200627435	33.10432732495313
19.759096794196175	86.60466922264938
28.065627174028908	22.964132849652096
9.50039881064184	46.073251351191104
69.98805325691767	89.026919212216
72.94435466509836	98.15091607700643
74.22468942879033	17.229053184753894
23.3332605536827	91.18761563128274
93.59991335320707	73.9611061875039
68.2156596688049	49.557625369909495
56.654136464462155	10.807236117417373
83.56153672593682	94.59617403403625
3.6804800150395334	28.773516047990412
30.921203803241305	16.664922261797376
49.504173126859406	99.42169304628963
35.030692028145005	41.41030867553707
28.14914983583503	13.246373310970727
54.697888236275546	36.374374507957285
83.5979535599472	83.90839083986437
79.2236119944169	73.94139524146655
9.382978101823358	25.750170273844763
96.22989920218888	15.608262299014076
38.04106872230616	95.1545294295495
38.72124123733596	99.03493363401897
43.88166852449334	27.163949395110144
94.25481986054126	32.00087445114485
57.41502215228312	41.326437615398845
91.16630328887227	66.32962683269184
37.030969212443686	86.99225950606618
90.85914957959073	46.11946244709196
22.842740905314006	93.1789425170064
9.188593586118788	72.25072094408573
63.07666067033048	4.3548920675840925
40.39088518920385	60.26738595151806
16.55856433988987	61.043953537024386
46.82765661725837	34.89170802903787
53.386444090512555	9.094414692287556
93.35609205759519	29.884072642163105
93.80109197618866	37.62331278462556
45.60985912982781	70.10240924185827
67.88263325170027	17.946436944646806
99.0154403039172	72.82057970946771
81.8351660765085	25.237146063037297
