28.023865693464987	11.7575946070826
81.30585890782646	64.87217025836424
83.2993927568046	4.47449969806245
17.045979936841327	0.6074272072564391
87.53712364484062	98.26873620343318
26.18262845303363	91.19312831300755
74.30045025986533	4.718916716024168
25.39029668986347	16.579354380904967
70.60725240794385	63.95161179852343
7.901846945420877	20.270152751833827
90.96965414673815	3.186402834254687
21.931614928570266	80.24476004895035
9.349224615210128	45.82197577830658
66.46963294009757	25.72320570919553
0.6753511458469696	99.26296023932775
20.34288641875891	46.254686318895345
1.9328819580125112	17.24124119309398
76.56140482777806	51.3542268645941
95.01903595709848	74.62167927726885
74.66107240882242	8.774775138494773
2.536756976027732	96.88244768622985
19.39403659428115	89.59211224562117
18.11373130754782	21.641952348276593
61.272632765686495	97.30248297680248
18.544219229926885	69.21543148636509
10.55273065023985	0.36152943395160175
77.70046749484519	36.37317295969322
37.29524805206649	24.15649157846683
61.23797025312183	30.372962975941252
2.3484519792640324	18.397584189991022
41.086607402593245	43.54097928794947
3.855525188224407	33.881994248045956
34.41088607374185	83.27156999720098
60.83832945197748	52.75933765036827
51.99051502334889	91.62625442610623
22.222977398801113	46.09225278502742
19.081493276122163	34.764059853228076
43.69376495682688	4.988378248108194
81.60746084273526	4.886122384930336
0.9498756041617429	51.38178386103267
58.46135065395315	49.09082916339138
10.462687572110918	90.55340465234919
7.285030085062727	0.30761183220615607
19.360585211539714	11.282070250935893
71.83778864632299	13.691329999913094
50.98822543018029	76.27922992470504
68.08064475305	63.24440286707952
24.325905834894	99.6785413383834
12.564652548204247	18.695642969372805
77.00058108176403	69.55982110829619
25.84589519355719	3.7572892191421348
69.74551421308944	42.33229847803068
74.20545662683386	14.502488156150973
91.7371107295682	88.92122990447638
25.842541003635876	52.53871151589381
36.04316233644109	29.176159008719114
51.526998849890816	72.16140228092048
5.676611001452814	34.230859082279764
96.47024361704267	97.79716703427391
29.381490130069952	64.46438214680491
7.1678292397315495	72.28831678877214
69.59318204987123	80.46424626773687
43.12369927742616	94.48103802963742
8.993038827749933	62.808000615855434
63.62044968072662	20.533920553831575
74.83825055365473	49.05731659660301
3.005443563665977	12.313864922746765
22.97619587238733	8.513071460696843
49.47015884938961	5.821919386344277
77.49330577581837	29.426001862906894
19.8982531792251	34.41239648926728
29.959985472392347	66.1560878610872
39.848670788848814	7.880522237417398
12.572036624491245	28.657162400725777
26.687495851833088	49.45461521627206
26.148992698207472	53.97148530341973
87.5957164722892	75.98278277993398
18.320646264006925	36.61135245233643
91.54346777581208	79.7975178381975
51.17063539848269	36.08442180551429
59.676103401502324	10.929010156764118
2.4871874652242387	28.926182514012034
64.36533270239293	19.72366821782996
27.39431719008467	94.9241548316253
91.89181435340188	65.65963326728715
8.55655683262957	16.261181720786865
31.888663483413882	12.75441877777177
13.624585714680071	56.42304512970102
71.53324655299562	84.71637517532703
43.08170489465603	21.872796156749075
