30.520887841861544	33.34308651141732
20.13693773819838	76.20128754118716
70.47390356678763	66.69303589847397
1.5204307805312567	97.17836236758119
75.17053012784515	99.53716956121009
41.85211020848265	44.74528273137274
42.48553459483478	29.592818337144024
64.32171533546192	11.545546550831354
14.308708249199654	33.638937145342105
88.35415047011513	90.62075293530127
83.3206832084135	45.48118440333223
36.64957290036618	84.84333378875363
31.473776742071202	91.55757432993035
77.88841786996858	90.4953760515076
76.73638754003198	29.05542933442449
70.01572049425435	75.4934244321192
15.133588710278612	3.3573392214937936
55.3662439653875	80.79796755963744
10.586875944742813	84.36917763715196
80.1747597812729	49.18220905404193
39.41225808738537	49.6590974914073
90.11532447014244	39.02838698427037
73.63424979546186	91.67743320958725
2.2981005589010395	81.18287172507988
43.86589184719574	54.820201438081796
14.12300788213965	17.884202643653
77.51549197486331	89.95893569004998
32.15006415166614	32.12948469687309
83.55384398189493	14.217734454713593
47.29858335628493	49.19953519427859
68.18008051392239	42.5479579489498
36.031238004153174	65.46488667314365
51.22028373583205	91.24414954006326
50.40752966853177	14.927209856314283
42.983075489889586	69.99744250529763
32.626204787351	18.977149581071096
41.267771466272094	87.7837739164536
48.17518903594886	77.46827619533398
44.28202593869662	32.23654318377358
50.48541724367016	76.47972896241436
0.6079216886958894	2.2745472032712932
26.417104540902216	58.38312542656752
0.9384956040509373	51.49299089311498
83.12716094724402	7.920569360360363
24.26072222134983	32.497264143491165
71.00030007420118	52.96404412531034
9.172210344515374	49.03799681756147
35.21310791012582	3.3024001170841255
66.90722412163953	16.911689502629212
64.99802472570599	23.0620235312021
53.329650733308064	37.62483104028856
37.22729774135325	81.57709744017635
4.364403589277566	22.587713549633705
10.1513046234307	45.0103047353264
75.98317206468637	17.237520698859242
7.416233637400249	35.835410955414396
72.5304652418489	37.945649107631276
36.813326431530555	81.64046735832305
27.564205612943947	64.5052778638378
16.91756434444255	48.85245389424154
29.90683116008588	62.040465703633515
68.67064524925509	21.01235222570953
2.9166562405152585	17.323934260770613
53.97249546247631	68.42971581424732
33.90358997662285	57.73579892755597
64.66487772982148	77.03959091684906
96.55378743555781	56.44888126888017
59.940060781160795	29.25847532490056
8.803389205592161	18.5682434524872
97.3426989356079	21.20344870070171
38.446219548015904	36.954154980176746
1.1382432201221704	59.57760178012377
11.408787061417303	83.02180147942279
79.35902099260585	75.04468233728451
12.415805096629617	79.37652874946613
60.9256206918857	41.02877865370682
55.1559774577659	58.77501356165872
51.91332014475824	24.61899478472486
84.12699169466215	15.715096574423404
35.101578622448834	81.41440266455584
20.59828990373086	63.69816569589919
30.7435313922631	65.19207698937625
19.957944812727625	81.03302025888914
31.219767512597862	55.41875378315099
91.64495503098142	37.0277010342
32.7625528012732	72.51537824112154
75.28932241400469	16.39048748190588
65.66363913334388	58.29171748744828
8.570708066630406	23.78207584654186
72.16383689782538	99.56986234636292
72.49505086434561	50.08598652690441
24.440703109864604	6.353629809773964
99.20419799613231	41.145760294145596
34.409048446760096	67.43393451429316
1.5548909898562613	87.42140169137065
45.233510424718645	65.7425052647071
57.287872231061144	19.281998133897172
43.85924488410436	23.60136873310983
73.7378675553907	28.24041863301574
12.720299811407788	85.30988101432378
7.908786129324197	44.60193234621094
72.61599245723453	5.79319619047407
