85.34807265898576	62.5653958061331
71.78121033990534	15.579061198221789
94.83268693610106	49.90885316030506
96.15496386126694	26.86893696486411
49.5262533976917	47.93148231470234
53.819359602392936	5.581345464452003
62.500520048282596	14.000997247755153
24.02028088923084	22.859290136524024
7.1409849277417115	25.422123511760162
88.63159528403898	69.79638524274878
81.22881399845149	98.06552024233544
65.94745839599513	53.8871374235911
86.4143933749838	75.54937605920222
51.168986763037424	66.41865294806917
64.59603727889441	74.18978964509057
74.72189011491838	26.55041082460512
39.02296785626738	4.303142167056451
6.480207631617985	44.781466254745986
2.5437617306110494	29.77622308365482
87.3101235578534	84.53836044860883
24.111939022642403	90.81585918691704
71.10778661939618	15.802153047216539
56.86580094088486	31.851040383500294
89.08443427600236	83.34958236594632
37.511042423714926	70.36812799780455
4.9067119566735045	20.16300693722283
30.400635703006905	16.27918495080832
35.821502616773735	71.1250608955291
95.86467563010751	71.75095493488847
85.3836239477006	36.758022039220286
41.09450013979146	16.634045275070473
59.819621382852276	85.38104458944487
74.03330867368084	7.967900224704172
94.53026106926474	90.21377415895114
10.462132815446445	38.62797647464239
75.47071876680965	85.03545013623255
11.027235666381053	87.0446832142432
75.57907370043772	9.022908214714898
85.03915095098166	54.04959709942854
33.51117393824122	32.71993619906226
11.216346580865688	15.637393804906342
75.31780039275512	57.33433163271312
35.11424348711353	20.417105413594516
70.61575402819827	23.176764217290703
31.661214172371956	72.25028373431819
47.530091164025166	85.3723738640761
91.39317051125839	7.574938221991423
11.51368813167366	7.352817741436657
58.07498648151338	85.95214422967798
2.5450295368988907	30.177844663842755
67.30827903664812	56.99700092339787
53.299382165612776	99.36847283511624
50.20753317559317	50.8579829296268
92.46993745442418	71.55523446744294
47.20861118059246	94.42250701319804
6.021892780569216	66.89278220650327
76.54181788232765	91.30328537917299
58.6416134614009	33.85980699850841
64.99760760279902	35.52538010155739
54.69181729572243	55.01064626993497
14.417317304329513	90.99816904164535
63.09763054085353	5.731223976292843
72.10145210866659	85.78827418156094
0.25399304075135465	76.92683069485372
8.367495860106644	8.635320071536645
36.08912562120924	19.143217016468782
96.93987686030754	15.501954096607196
36.46463096136537	53.64108419699255
43.85438453712719	67.94748791708065
24.139742938689423	73.37915566184523
24.98724823678604	31.697148351530803
56.75416703267424	72.43328850184797
79.33995693217007	88.31059168949734
41.079631906218594	1.3069665321082446
61.97970322753	14.22016117550381
58.48537400004186	25.861140182895447
