25.548131511603668	63.15580270609728
24.5473730891278	16.190374827128107
37.53032064253797	65.24459891333694
65.44161829570932	69.44855124274993
45.78514754461149	92.48234123266566
88.2880784179617	85.99617540248808
71.67072798231874	38.95350551628407
24.420188291509305	39.527767980326736
65.28484306081886	15.789376167746404
44.24204537176104	93.85677786357091
87.74517948393176	25.585673650160633
62.77461505215997	40.73997590151319
85.02806776614143	61.592617197710766
63.28168234257715	32.68532761937802
35.65445490765785	70.79299014726797
74.19846947528438	79.28383819966174
14.40379395139807	7.808007274728556
65.92747377345407	30.554839719643635
72.18188566838994	71.83566988530278
56.50602744907201	65.53938358086768
25.177383876563187	73.99946039330547
29.24609541530764	77.99920479011402
64.76592855797068	96.95352249168245
22.496301231112803	9.020048010561133
54.38173580527174	41.79481548075557
99.04355930366062	7.647939048916575
23.49521197686154	9.519596431333765
28.730127389010494	93.16288395639015
78.17217623380688	29.849846276429084
55.271236118557596	51.195140366783974
33.04115132328575	19.833159717685746
40.83684503060204	32.40406855259537
52.13842161421633	41.09292956117575
34.13213183791643	84.71609110824558
52.47584861974013	36.38905366643242
96.48404069826651	62.37934573066058
36.83410308525992	0.8286088266790448
79.89050104107133	80.40475197214593
89.3081401478561	88.44723605216271
54.40540424511868	76.54807262566302
28.076830020067334	17.706314553401782
4.030230308526472	94.12848528013842
78.91392008473224	66.88758070454959
21.273648850677553	22.342818076933668
81.66930811192148	65.08832560588985
93.05944186306034	32.61308840038723
67.29178788006703	36.43955910887205
83.3108757986605	29.961961634140177
63.98194532419117	58.11116089309509
58.66587200387426	21.085417866881716
43.37302651034523	53.39341677967735
38.53614467425975	54.89480736520975
69.68791294598998	89.7691161485419
78.54972334051847	40.86214869888397
56.25731471074988	32.32635128238216
56.5993564343923	17.58672586721972
78.24882180829023	23.999141838953598
84.89364381384597	90.19290201750634
65.91194906581576	86.09238038912775
52.18512803607395	72.14751937382951
89.61112270113772	71.97671943939389
45.32465270407992	80.19799987874386
11.534176361089955	8.007564626177777
36.8229256473429	55.51186487313146
20.908236237579324	79.45582913900402
70.62447816385233	24.57994011513448
24.96066983171502	30.563442705731315
97.25647768641643	92.53368253837019
67.82827155838007	48.950347986190145
95.96592833573241	83.51798956084534
32.8084498722265	51.72450354406166
96.12799870468774	41.30241562763798
96.20478276362282	23.03023746726749
37.287039625737414	35.28857509313782
39.1599422993116	46.182379677874785
30.251902168953816	3.6903628437711222
4.943854853736662	99.37926307019342
36.49714248920623	2.135768499385726
82.85463242817464	91.80681663298435
84.73926227901914	36.495124696432526
41.64613325852182	48.22232776084181
96.18612096720844	97.91169617195384
75.15764628764256	66.66077735898315
80.58743679862921	99.75424959567778
49.521401512416816	43.20609100315962
15.087615317572201	48.64868090690785
16.61277187450304	97.77073124866719
5.4815263880856	3.9599536630612997
