90.17710086134564	42.46396714415914
5.295149192901638	42.06328627433159
24.488575495486163	40.13724866632478
85.91433527005539	23.19504612945066
57.270079320288325	76.72451199947525
54.523685833766535	97.46782044919733
88.07139069457716	12.932497798194188
28.998610037603267	2.5282031771460933
25.75506513865673	12.309568835271822
64.1335489177743	21.625297567578006
2.1861989535622794	45.09370529815829
63.98028604092241	25.063060996733878
73.88731221920162	80.57257891187535
38.14310154134491	56.07481955996407
44.71462927344005	38.94181829033819
79.27395892553061	15.067824908186267
18.690786543938675	63.18455483816955
12.699589699200631	84.60766368018018
0.4925353824005718	53.941296805652705
83.07067498463823	48.834578495664346
97.69566564138452	22.616947308471712
17.18168030198849	48.88265365844371
16.646641828339604	67.13226243958498
45.94656955789218	61.49845990686581
69.64996394837098	35.148169804998375
2.711425011371449	79.30454565226081
14.357582788278545	40.94369166433685
20.5537275070277	3.1461553442126755
3.199129488775121	70.1941964542357
75.6861504979623	14.335983920962192
8.90850741435656	57.88559672951072
37.9360638921363	74.09339512153417
74.27242990685244	66.41666850017916
54.88133085991098	42.63899798295999
65.46526775987273	63.405726561006446
23.542337947929227	80.61724111773079
34.26287419546976	21.90120436243712
25.976017966876384	33.665402437894286
89.56327657994035	65.99092348032856
83.24244096967927	66.65813260049963
66.93181858880605	36.02360794347352
22.71052431004318	97.28932755595675
98.80614003707694	5.911393174407598
6.812894302746186	75.23315175125384
67.56539325127375	49.79888666021597
18.86381022881669	46.161414900095274
79.88762826993153	65.19112833653665
64.1732466206821	57.46738363196874
59.76374905385677	14.013506816742705
51.661216514506805	95.31907455534608
22.315980380594368	43.108025737564724
65.84751402132103	92.2224944556718
19.677898258848103	85.80615520660066
46.92540640541106	43.859230701494155
72.73747880746339	53.50502933332947
15.512563588455075	21.82213328755781
61.59120249496429	87.5690739508243
80.0226642412493	60.77176494691572
86.05617562214093	47.484571220642295
44.58210087380059	55.46311792739974
57.50710264907164	0.9956109128116841
12.291851965371736	83.26048433259417
32.870659931391735	15.1135733878472
32.782244079670384	55.50925773955139
46.70190577241248	33.3543599294434
9.832299076540728	91.6996967048056
81.44991713479922	54.794757026211535
15.222044564203507	92.19739560425502
42.54183604572217	87.36652530763347
97.27786292396354	91.1465067099347
88.24624952705452	63.34021209175261
96.24677442602763	30.145626235819755
45.68934670098792	29.691358392595333
83.5310209790386	33.28893236718743
46.43639454939505	39.506004605385414
34.135491448253	23.584803308220582
25.38467998655537	88.01794183137112
37.0544800419049	72.30142692122443
41.47907605130264	75.80548957998366
45.17337847451868	68.18706148563768
65.99163510608447	22.498636392491612
79.09675616753847	84.47933548245375
48.16148439341424	48.41817403047407
2.946531560517074	41.76658198943129
46.30400776244702	29.70018690999886
57.63395916632646	6.820006628758013
6.445165382737972	91.10708071446737
94.715596461395	60.10902281256244
44.770419070596965	11.272960234328721
10.292094390982431	54.51000221923301
51.29210102139109	76.9338039132969
6.20183675575825	93.49617119332854
4.649083050522473	70.49135415565777
32.129165545691706	70.48116714921274
31.507733398157388	81.98381936542853
56.249854267298424	32.27330976705565
7.541362339612501	18.31778848782196
24.452983263886775	13.934666383613125
37.31356728253574	26.272219966995124
71.34531570449525	81.1203329260639
7.020812770697782	83.32975697926834
26.47234201718911	5.1060923099023325
21.273662149566896	13.792518183084901
66.65824426100284	17.96531020771013
76.53757203185468	67.05670895559483
27.377767869062588	47.106983169435225
33.16223218958116	38.18504687384174
99.51881914145179	37.165299430353436
31.82872814721771	79.1629135208898
11.347553945660193	99.19491393227925
69.73510750726102	76.72027983784574
23.062175810382378	49.916153891191506
34.50096398470711	97.06288063052975
45.600603639595725	24.73994371309699
5.18679180960252	31.220115443976624
16.8384399658818	75.81857028295344
65.80887925702194	24.48161656665704
38.5720255719618	83.01927461392586
97.67843712637898	2.45491521724287
13.856166855777708	5.437328273121256
88.22420708669796	49.59702436317082
3.1836497665226227	78.15082000685868
86.97730623498003	48.09840312493212
81.299666350041	57.472086423555005
65.2284062531896	90.69162594808199
63.9558826986534	58.44599736406657
12.823514975789973	47.224416117558285
75.38213015410054	81.17606508392855
4.619826595195542	25.15094239235739
91.23249596260258	64.67633213314159
95.62397009000482	40.14402552549766
70.95926071446526	43.841664677987204
97.010810880422	0.8637642520029187
16.307967609510154	32.12424681651061
31.919300778181125	3.031157084794711
46.38831758690729	58.09223203693589
