21.38091181633548	6.960513968005944
94.93785938268296	51.59194704563509
30.573120370677508	54.90734988504061
82.97167880892027	69.09587273965977
18.22711455232585	21.7085914586848
62.73358959131544	85.07436054653229
43.80473142379932	58.787987736412596
94.34373315083029	41.283567356905785
7.8009898089322345	86.44729483619754
91.33789948220358	94.13212085031677
20.880930349391402	86.24228634332896
50.183658451119086	72.25907526932104
64.56396076326642	82.47882252793106
61.62621610885538	8.157432102263218
80.9024093858321	81.16105706969037
68.28413716782958	56.853865501427606
43.63265359574676	75.54920952754412
54.07026027004901	30.330336729838457
39.414851967420375	1.5934399498204521
74.85245393677896	57.25653293738503
37.16277964965203	2.5630353224603386
22.172588516924286	91.97279185462844
53.547064626303275	52.85005998791007
74.97066871155955	89.84569973865402
16.645261699138246	44.6980078208498
60.5752155777131	96.308943373173
73.57473353482807	20.332505590679506
49.657691697125884	95.09315853759743
64.55157239480944	9.30494420771839
84.75722028606378	72.06411421058273
38.639900076715804	59.169263249418194
21.486953081185646	21.299820183053942
14.067956591845176	90.11819472030557
98.85766317989425	36.533643344399124
88.96226668927376	59.00493792555922
64.14384691525287	21.854518507977883
90.34534056660019	87.82961607481103
73.22832827261087	0.44974877211750863
43.14732435028208	95.63345230610332
58.78304081587059	9.127892571721475
48.18891163119151	23.130373758115542
76.93954598973201	60.64708923844784
1.6413079560449129	83.24656429543715
92.13329510466194	94.08434415809093
47.10990423132252	29.65337217581141
23.061510292711485	23.27841879546294
71.00568653522978	34.56323512589476
54.91449892202825	82.8271938009481
45.08047514668135	73.79433502082148
78.67509096007197	67.49824838231456
75.73910055591999	50.42599679166978
82.37443985149707	75.22706293182435
40.210945570497856	82.19187927694483
58.761395621974245	51.45462401649431
83.97502297532088	76.18071344540812
62.3033461921488	13.717420342166953
95.50348151195439	22.97729342946784
20.264182397480123	46.70279808536682
84.88436872145603	84.78465339650606
40.40847270408305	49.87942375904753
64.09163960092512	72.209510811483
9.859858111873997	25.276529685858662
1.7560715455603892	63.96312818786903
5.531753321372179	87.86122448330674
48.49030881691668	83.09432491166989
90.31214447491026	85.76851337946943
88.58328179731606	33.56299658041381
0.8794675161790444	86.85390050002204
85.89453501668079	45.126497240394094
55.61340108403786	85.60024082881765
43.13683233505545	5.0002696823225
31.392010263407432	0.8168739950073833
87.75863550244681	22.828284154425504
86.93005356525698	57.13842895308995
71.62783109480443	28.625973794721972
69.94259976165797	44.2874276529325
21.01062290891805	70.72588356133657
42.53131518835486	8.277974698688183
38.06166385273458	89.5726672451427
94.48445647958135	91.59004654596424
10.051143969525821	65.60981275780206
53.5724516502945	76.08492584644418
43.085884802550964	66.72612686353501
16.981319161488507	48.42720548369568
19.105391107526227	5.50931955978805
6.506981651727473	20.377578700596565
74.3205615303982	58.844143173283804
47.42571490772601	70.30538993539405
29.880334901837212	52.96463844881046
68.28817502151601	98.74047820215186
21.515480654443277	0.4724267648928415
39.56702456301343	4.100379860793146
19.929947659539238	10.312468088020454
85.26970033490444	89.23564461477466
8.131574669576402	38.092151081978656
3.8904137797708183	43.49734910841002
39.76877621296241	31.4987708649631
46.3037333882341	51.21585670175814
28.27790806303937	90.39057023302877
58.31594826496467	12.752879859393651
56.37382398098519	73.26156152629018
63.22891367531136	17.17779739837175
57.7237302516464	3.029803912118334
14.971934761402183	20.709846796047383
56.45383773594838	89.71589600601307
62.436527543008346	75.66444440547444
2.0214958345259215	93.46550529655703
46.56905064366552	5.826916502780888
5.94775045713416	28.033076126617672
17.027687554330118	22.66322123127108
53.59155867294637	8.982029285200676
98.52716520056218	12.718126888544056
40.11058037853636	53.8239593115453
89.66174148957903	65.63331602273172
67.35468719607921	73.29543804803089
94.39738199424099	49.48917047049331
40.68379917094273	6.4277515445542495
10.7411318832353	84.7715461059636
62.31225328433268	92.61858386482227
69.40518744475706	96.59605049936685
79.92306802190221	96.79970327133977
10.636749669725642	10.229944860219241
36.569349306975674	83.14919586450927
32.8137283268732	7.133446297874235
49.75228522804153	90.60046682626687
70.43828304496701	48.61385912646507
87.0247738981175	15.730087652701997
8.249392723511551	17.02946543960675
36.92511080444435	50.36840740267679
35.91028938839962	92.48712275150932
12.359502807361643	33.94148292836267
97.60524466046942	59.76569142139267
13.438109742257776	22.655154034349177
65.4838558482211	5.315400019898653
1.9112836703442881	91.09551134269857
10.898082914426821	29.640305404322476
40.08248050574322	70.87116478561293
47.1449364320056	23.633832712917357
88.56606165829463	58.984209782566055
47.201127367744235	15.735028080539749
63.09113684870689	37.866228866055515
56.13700725541246	2.2312242879365063
63.304841365783304	78.9422725873434
19.1843213584852	64.27209268760559
46.183015553110216	65.63229602691032
