50.45523689591973	64.54901589976015
71.99287815183953	30.17895087845105
55.4685181300462	33.2270204305327
66.3162726069167	82.34304163482446
85.9554081610883	23.458575470299337
55.378110508176626	36.490368921242876
27.855232319955626	14.834665390487478
37.20528414256402	38.89088571283881
42.39192938741624	33.66097079546272
17.293095414062808	1.606993670797685
94.2568038611855	97.13901570320378
62.520283059606754	6.970302758820546
43.517734083281056	33.57487512272682
2.9981744095740503	30.035310662383107
33.06645075890001	24.48078128582054
2.7464713103923843	8.947373817791481
92.26782300405645	82.94709802859263
6.565002633101824	46.91259522387149
61.812760170671524	69.76928450009284
98.40491151665938	60.27790583700505
59.87573331610798	89.43071718159578
24.95054701227638	94.85422400696551
99.95372963064575	37.33403407089118
3.0320443275040243	44.00297332289645
99.17588845118757	54.689956435792766
42.2690618490214	71.39602507464262
1.221109205201143	89.47388144900769
56.912279462645955	18.92177323194254
29.266586675047833	21.9021085260521
93.98504520751233	19.887304186698728
