15.786262876815227	21.71835373579799
87.56672110421874	84.35756114763947
24.933864538477792	54.02397251080171
74.09966796221856	8.821873352319232
98.22902938491592	90.91517067468067
1.8666542975044886	96.57061818268804
84.29063360003177	80.10954112429418
85.1965001511917	51.13719583553487
79.6192959719535	34.48981500732935
19.84625190833469	2.0990818143650114
71.91773481012848	28.676411577518156
49.19845394528305	12.29627245546686
16.992073272827966	44.10996784111667
78.65178867737127	84.61909395433173
17.542651040648817	31.024583435450694
99.52427981101089	98.72594532906793
85.99901187680355	47.23719423014215
92.52356326302686	61.42789370153697
39.15405326459186	21.386863090092344
43.43649987960671	99.82160540223171
47.64570782343296	31.044934914643065
63.66175742007065	5.805240129390166
65.3338708349038	84.69754532350551
22.981028086173993	63.01148151670144
2.2569543987529306	41.18096897819035
38.92138225271699	18.323579542713407
80.89578001965462	62.16315333567175
79.34449001856032	43.222360124458646
35.452031717859256	55.07256662491544
48.82839419007817	79.01285068102779
17.559979185726636	81.92618183010646
41.5530287495667	68.91963589440742
13.757271976587205	38.35622350704044
67.27581765955698	38.603726912979
54.92565098215137	23.031873492332643
90.24728312697458	81.66713152659189
99.33660533333943	87.4347141741501
75.50943520630761	31.39803283628598
24.538480333833323	48.03829098486471
32.696585424445054	61.37337000427493
17.46013305666875	68.9931781659585
56.71290381239703	26.996296667002795
93.77042482773933	44.97107893576611
46.51995617288702	89.85972651143318
46.50564159467259	83.88640683972514
78.86346107091606	15.183682571941159
3.7677692229080573	14.973352186258948
36.14337355191658	75.0734956942677
1.7231968979097068	84.93191710659384
30.516954051598056	58.60087493196715
15.626819332169784	14.615867362808743
48.999876899133774	34.38530473733857
54.754752028873476	48.25455158211849
75.08714376892208	76.54120441994273
86.8101784628495	86.94470821174582
96.27485986879043	57.77614301947735
47.77262945354719	83.68658248216744
29.193137610831066	38.24402756396723
64.19905920596679	92.72206007985227
8.506563805463962	38.01424323261732
55.86019702643136	22.969991545942847
88.81154314575907	16.760646443737848
6.73293789262509	18.567794663559532
58.536115421218426	84.52293146875905
3.0524745008455145	92.28720784903908
72.1986564320858	54.592078577818526
31.246179225718297	90.36701242414655
82.30248478713749	66.03484276779015
80.26269149093108	40.66504225195386
35.936480001146464	77.04153530665442
4.571145938277321	46.85865602199141
16.027872579701274	16.086775182372282
98.10518890898086	18.335308874318677
27.524607036831505	96.47255092901209
57.48797934077325	40.32230566454076
93.57486075180536	30.882324760752354
0.9499306411601127	71.11644227418806
87.57571892372194	34.79785504470636
82.94417384839045	19.51920912797277
29.811202636327472	45.75976084819972
83.32080761799959	53.59808797807757
69.208159243687	3.8164780529013953
23.121217257559103	92.50768302124038
27.532423438688024	73.95282097183937
83.40013502862595	30.09716364161679
58.0380349797282	21.537036874121107
63.260803934313884	21.19578973452857
25.151050176922528	64.05532543813241
81.07671125605172	91.09292470193185
34.768738903881726	36.657121538691875
28.13997325480201	68.05785548962629
91.29494068074263	14.138128417931462
65.71973527791232	77.14023964089998
8.309772259809767	97.20075361888783
12.40671533175095	14.520825958606476
4.275071334799662	23.735715998902517
78.59718906849021	91.85100722146387
84.05006722371293	50.62205279460363
96.45343093668947	35.29843526763848
64.06589490811302	65.59631737878036
28.49034184978121	38.21817504268199
18.436452395084537	79.11592557289431
91.29978024303	22.493682610540212
18.1832740702214	16.7491059169542
75.48128962942133	69.58234877808124
26.59927998951953	16.154407630230928
74.10887838105835	80.94545093047941
2.171160147044382	22.086921901348187
61.14352130239244	59.59738784388554
90.9452644662453	41.372786199678835
95.47675309969222	63.35647995907263
33.80791087098039	57.412103774047196
96.33144968496576	71.24024709791367
35.97132008812183	24.396747848720924
11.360758948223204	72.23078479766852
43.355565400333354	8.071761132762155
54.58514196986395	2.6280343933999806
21.564662918721133	3.23078206220625
80.75043584981864	31.13159908822215
1.8981679868666501	56.85282091661477
98.95491499755684	9.241455657986586
89.0187181336877	54.53969989162073
28.749018214150958	11.85828870828095
51.96590894147158	3.284275501367362
64.12869868200796	35.84725966941379
31.479072063622205	83.66941023501371
49.37329360821751	76.07381838198377
73.08947108428883	45.4502488934753
60.99668799563498	71.26858154302423
0.9618579052755871	36.833679461726945
