32.7460578675241	54.43463549701407
44.38132799364157	91.87874780651332
91.56878285765882	72.72426784374107
13.800160578714294	46.48501271677555
79.22254954576542	77.89125488866382
45.97141469711391	91.77289652892453
95.6782888140358	43.81533273212408
2.4589556053904116	55.13619422965357
71.63386896989941	10.041500974104412
85.70366460029673	4.270817222225998
37.098232536894905	36.755269926869836
28.454869000827333	89.33537726860104
35.623792660637065	64.79558001448366
17.506618340622847	49.262628882429915
57.19289084725814	12.125465558054993
56.52573479604758	66.95464546950174
47.065421227961814	26.010036205505106
85.78267300287007	99.98633372473726
75.27173429030101	99.06096633861645
32.31876861239276	28.138736647116435
39.96512758789894	96.42301570981017
33.77286832976792	68.8650811220359
94.88331964709931	72.28859950122126
