87.2570678887336	97.20722658776614
53.93732029030103	86.07077402723394
48.37446247539239	50.017507484984655
32.43853603463545	82.08547310483509
47.45482206498086	72.15130725805264
89.22680624592661	57.07086337317343
0.8713458671722241	24.516644840875447
99.67840466056741	29.511888749364434
53.022441820354935	55.54121345344184
98.78463530197541	45.86119265594421
15.090424957544691	22.465892634323737
39.14765208583365	83.08093632843112
18.630302520028184	87.39612718132057
78.79486228877326	81.4296722304702
92.25477563329386	97.85061764322909
24.499865538998	93.55101889474608
44.92857655986424	66.00497095876713
91.47114628647958	67.3859409870478
12.45667105921796	55.30273084809899
6.480135750574744	91.55136560738086
84.0712358320715	56.404790203881596
9.454463427118453	97.6695923262691
60.990087889695744	62.6570735749572
13.590580420777854	42.27685826957012
64.258065707217	92.7277538487051
77.98008241749453	54.29929119562617
37.205108647943206	26.427156963750054
83.85000551822624	21.39914077429188
1.7898217350510892	59.88782544639739
85.32714119040517	53.61804503063852
65.10649104926304	44.89198553476821
82.94739350457981	98.86785780991423
50.08356622188105	82.15944640620393
63.05123290778521	95.4227901996297
54.1480838250345	97.65814043444068
83.02479657175094	92.3350517689151
40.819422169571304	9.914289601233794
98.84870729731078	10.519617951767602
23.947892930322723	79.67780780262764
0.8324603539647479	1.3012743852527264
99.41811051294663	42.85423794099048
12.614147017430955	41.56163749187664
34.54377053018462	57.70506082677584
80.7701284554319	45.01917159847962
59.182808747329	39.22977017793611
51.230573865982464	76.2482472178088
62.909066338225	61.78908274646939
75.65132905904531	2.1406293916689467
10.728451488537283	26.236748539914156
91.63923822459098	41.8169093047042
13.440734378862862	14.41299082603652
49.30874252844768	51.58626778152167
60.92026250941647	55.586347200385276
29.379137044251813	21.02521373713425
59.35876237298658	69.67998907651031
60.26296388787307	70.93193794456215
91.39083262394509	92.65976009970478
91.03874620095593	97.05380015809197
99.07248046612911	28.724763337098203
83.31061001533284	80.08927731148296
36.786465848216565	79.76094988156672
55.90263836911997	35.4247953752389
57.360263265249586	89.80173011375429
89.57694699664312	32.30454131296927
68.15592275285155	60.06781225580401
98.8335517174296	11.4354856088981
56.78830214753631	21.871950946091477
12.246470179030833	90.61634280128288
29.27661857690139	10.636987680700738
0.8987003761887324	15.946597757014725
11.906116791504894	99.12997705151045
37.587570060270615	63.398619316783254
82.60324206071101	1.9624853464968894
6.574851178252105	85.41695972191987
97.82551885022221	18.28525245489969
50.160818236537466	3.4557300188072015
29.79325108421571	90.21427367390234
71.09771647589933	48.927429952277514
93.9645865247704	57.1253048736918
35.73442939999731	80.34567369736155
87.84154066750875	35.84568561647703
50.58704551481369	13.786725856975002
23.506615989234792	45.118124581177874
27.70653477274734	12.954727600734095
29.679390477445956	32.56430024440458
39.66367273704663	76.82944796367141
82.90297978177375	9.397147243736582
50.57897677882403	45.362540093286164
32.82744162911296	70.5114140886559
74.60741961743244	47.0716222176773
23.97802635331432	86.31326122762583
64.27604705888315	91.60513237750992
12.575954342082973	91.39323072417395
0.5393609307324687	93.91186518419875
5.264215087346058	30.44195253913332
21.158253052089226	41.85373130141507
9.23413405774104	62.123120496537275
58.67323504950649	91.15090139197508
58.343326934716465	49.36915819258867
28.88367507857189	56.44337180422855
0.025497117730166607	6.28746839318265
33.58476344238134	42.074383979124065
8.49181678236387	99.41054500591484
26.11151468267178	54.70659799895677
15.777347608277948	47.61645418319884
75.19415556851308	26.037152960539
25.233342444355657	90.36823396310193
48.11971475052413	61.62995322661583
38.039780562812766	93.16309505803362
71.39063276239168	65.86496330468422
99.95973863541357	93.69938221972313
41.27539053632901	71.70568437088234
89.34899157318713	53.29790377499764
17.408782290373427	86.04817229477499
42.52946585102788	23.92798573910212
5.2599994562387735	66.52205113410994
26.22272180073686	98.87748973339184
78.57874950888197	24.876605216271287
74.9960797125923	63.564856196040985
35.49583963301725	12.371091747306595
45.78979495475342	77.9232052364707
98.59557968929072	95.17619877030855
92.24294449758057	84.90024871857838
41.84604337400619	71.92541843807359
77.94874294394693	67.22564127507974
1.5416560363151421	86.45171572092433
83.59376086616625	97.62242845192378
91.54499755870873	31.739426459282726
36.14118563283354	92.40370419862228
80.24493302556498	84.8415967562888
75.09042696942674	5.517238520533718
1.9131668869243335	5.161697207079752
31.402398606158687	21.739032984125906
16.922141017331725	53.382189443656394
38.39625154349912	72.69686514279125
78.06643782281188	81.1993641675133
62.057622199383836	29.710850499488885
53.409732593003866	68.1981367803397
40.39760399329161	67.98473549236877
21.616211854917733	37.11835700219556
79.70500109980469	57.12982252553368
12.899462611033208	5.521040063496018
25.03810509707408	13.663228111116933
19.85459226943156	20.097338177586323
33.837010282190704	73.97258248785053
75.04336051990454	76.23875356504287
97.38592276293222	57.479954626380135
15.231451874072233	55.07644902490595
3.5865819589560366	80.81288130955447
25.21086419010128	22.383130702934906
13.288317540506632	6.5967862038481595
27.45753558563254	56.2315737314949
85.49982124612345	73.38417285116245
13.099881030460692	53.70413134295923
43.47447773785805	31.166177128021168
31.22187460906849	87.94077644917888
6.291799065465431	61.15657171284852
45.65687528550443	66.30833377800546
16.615312118408976	56.39808319019654
54.88264960669665	20.203022598154686
32.34151474693461	45.623999563756854
91.62917591924446	97.9873443766104
45.92632809241384	8.04509282623841
10.136282084387172	85.90325470250426
55.78502008232521	79.4704142166575
76.94785309377819	84.28079196401464
34.19139742843305	85.05696083309097
73.96977538799104	66.85672347931242
40.14458863702184	60.438977050844876
15.462388373832814	41.20522811827087
11.83327432617174	79.71260472423185
59.657577541503436	58.94245368104164
79.63925414666659	56.66925264324366
84.48252825530433	44.26001683790689
79.8626335432029	94.79849158333096
95.29921714455182	19.397905063292598
27.08983430473636	64.32500181813788
7.371056357660666	47.98037360707179
61.165948756377766	31.180720314264367
60.924089303207964	1.8599312803549428
80.6091080169855	26.92812137304912
22.515358958729394	11.183015367925087
