6.178961133599858	69.71584613584996
51.08199613037747	72.30055594538722
96.24455884867062	7.388298751681399
75.1198339728784	68.28918550815344
13.025031369533114	49.11844063986713
53.11405899200041	65.067030628738
3.0263015775892077	20.96754918827324
74.17852691746147	93.84739870694125
42.221722210734605	30.925071453419616
15.520120064175803	2.923327828172495
75.22269982023901	79.48802448966529
66.42726260859489	54.81347160954109
34.45924780608597	70.94535905668535
53.45904207386801	68.0915974882911
2.776135657314982	77.85379968573002
29.470180091452303	20.02815055178415
96.58214635096721	76.47632783049977
38.610925112257796	81.0320370589438
25.276772700016693	85.4284100921989
37.780058843426964	17.772020235290054
26.895784116405974	86.09064938788423
93.4741002597845	66.65536050391503
16.097893619454585	25.527905986838086
19.592171151613368	64.1011437712947
18.330635499498882	35.44563505857968
23.42089957750304	32.8973476721013
94.60234379481376	64.16958651094039
81.89505697497165	19.876256960859273
72.67534483080983	49.46320588402489
83.18124346209062	89.41436265909118
66.57934587666675	1.301615922867072
34.24273729286763	57.17346166915298
64.01218369095221	47.99965016131742
54.19817764750704	89.99326666193656
33.96856073043709	0.9499509792553651
37.42311604796672	14.292273738248317
13.304931086137362	93.79822326771568
81.08328816932605	1.134088524144794
6.249162185574841	19.81064001431333
40.10660107391926	13.764367373720743
73.2435075388664	39.017874395430916
30.1802962347558	55.2250112998593
76.71229405164915	72.66125686111624
50.44039185726873	11.861175020685366
87.27577642343574	67.42085980253549
65.39271508119121	58.91123533628132
37.003955893330954	12.301058494785888
79.99863493588818	25.240576258765046
69.97504571369592	32.78247919990566
55.31922284483139	83.13394097867352
72.99518788083377	23.255678648566946
4.383043026387911	64.0457998471172
11.874994478898405	94.82226152866372
22.80668173626539	98.34589742261115
98.16772674883882	50.46616750261359
90.84979483020551	65.82506190090729
69.98480516308877	24.210919374249862
8.155922609602284	69.34770132167046
49.78900730488866	14.103605218633252
97.91463980632304	32.96899143036135
92.90487946578642	44.46124434015404
68.84499073725982	98.4535050900265
11.234081589246891	52.77700936046832
32.92585399427978	98.60010757311682
84.2444985935866	31.86260157110351
82.16444103710413	91.69036367247364
93.14745989084795	21.089483533719246
83.47598255490706	8.370592293361966
59.9028639368716	60.650658345641396
63.51353290943975	44.83083556830499
19.374997723763766	88.08762127478755
23.561287697698685	60.37437877523261
13.976476468586963	50.7614734038204
22.613183187219267	46.19973473453862
74.32392411589376	51.469220563966815
22.887220423379016	55.72610528676436
92.42821622340783	23.428880358753457
52.57890947497602	83.83049348924456
70.58752431395187	26.668199573663376
69.66480528246895	93.23587680061819
35.356057403462984	29.182104549790424
77.54415660817043	43.98107014240672
20.90669922760022	17.158673531011004
86.76920667167613	82.03156493582601
91.36284650592489	9.236160150970619
51.623576269485206	64.67720120268736
2.475731145676474	82.72955879198783
31.289655414363192	93.03352022780905
30.315037143685164	47.84275622408288
45.54731138163424	72.67737241106646
74.86163242065555	35.553752371810695
85.57301119967786	5.383931769748163
74.56661084323237	35.45089871821937
52.80695229692471	62.463836923852156
19.83235390952256	70.48308158761844
10.10411257969379	81.89101391228796
