40.711234039411636	18.154138256436813
52.00216618567026	61.212126663844124
54.8279019394848	89.92533730762538
59.03682277549724	74.11431132652051
93.84214834206419	50.25137460103346
36.695254114728094	7.31974764699006
92.13029011508925	64.70838118846973
71.68568245671216	37.2409323053506
68.0331735641855	94.447062049625
33.745130342963336	26.93792576323377
78.80139002745668	94.9338741705683
90.99112872037242	15.180495388316139
0.22942369323213363	16.160041714768692
47.225408709101025	35.02044229584206
16.896042593138073	91.98384763500952
46.49350084019771	29.533111240787203
75.91744703123852	95.1340099306579
24.89558116571834	73.20396741717842
17.54251068775513	13.977517994642398
42.34121982889369	69.79083455146132
75.29008909032662	29.427164276097162
63.3928599760391	37.54075444646789
59.7867135206096	82.9147534179398
59.56802116199873	50.46809085957236
89.90883059802648	74.17144466104907
52.11303228627786	86.79721361547416
82.24963473951813	38.496251686801216
25.448776064136645	79.443532396427
24.17056909624451	63.305643570485415
53.303089480037826	22.749741303153503
50.03264380073611	35.89778251468781
53.44624336149275	13.796103861535958
27.486653454407605	5.526881323572641
54.94448083888857	83.36783474434158
54.34260064364796	99.82266635224393
56.876616034207906	9.489323542895256
27.32747522023168	69.08846996741434
67.85746298746315	33.523534540823896
42.03656294772644	83.96088760917544
7.9245720240032185	9.200095601269776
91.39277079184289	97.42257471636806
45.78094320031361	76.7879776997863
35.16323903080212	13.83730987284194
83.73963391049959	6.4938091962047695
70.44095014911912	0.5682203629208127
29.166836336532942	93.14950784043734
5.869739562123765	86.72664336480597
78.66686653474554	29.986409285958835
84.67553007017172	59.76809973070175
78.20673059572971	48.270037481146865
11.155928957211291	54.852148211138676
41.516345206693885	77.7723773686861
38.54405453899166	92.71923130535184
33.66920021097115	71.77315299197701
97.12719378893962	25.65895563104287
46.2858771528897	41.101502239806464
66.76679731934324	74.30913883881087
65.9102200832376	81.24551242553328
94.50136111576899	67.61038126746092
11.011167129134336	79.73306377551184
42.706662255948956	38.21867098530303
23.386257564849377	90.75726976908534
69.97413248790619	99.09312975459031
40.75835789910837	64.44222383154025
74.18276468086923	55.21085520316342
82.03059235375532	94.30360987448533
98.80917270529326	43.170258617819954
69.39067885306693	43.28575196007372
45.01785007075938	97.61092084243609
30.521946072327655	59.325901433987994
22.6121561583689	95.85410966515121
26.493501275256104	57.963043651006984
55.712060584794166	99.0556791351356
39.333343991165535	94.55143138818937
73.88869762739853	76.4619202316735
32.77835574761383	99.9633577382826
28.93807542174046	81.40489402041983
55.84633915355741	97.89028205903278
93.89753346963204	27.464057772197236
90.7597475471565	28.606804733564417
52.973855000965095	75.74954547201735
2.744381761810488	42.26144395260615
80.50790877559719	78.64859417265852
61.9303065794749	51.66443195221851
1.8780315011398097	75.09395445776282
69.64082669814164	76.83091857046203
15.254335795761708	97.04716734391384
1.6639903521442845	74.42096899663878
96.67009572354037	92.63751663802529
51.08436223603212	13.704176511575984
9.503591193145965	62.12106133306422
11.630803398024147	82.36861253540957
25.66069274592341	71.42994497237713
69.79585956625365	64.0441973086679
83.88684403699601	94.79287899955136
64.35763897288498	52.72146840842652
8.393317281422307	60.68618360232726
97.09764239217226	22.95421304062065
39.89395654616439	51.13550521431747
90.68758457971133	11.751715956815833
89.08767715327163	57.997860410103364
57.84962969144652	13.932060002210111
0.8899395112579533	66.57913228984161
53.84694223456384	67.11750730418876
17.625500230536773	74.13800734694021
81.69784288908613	46.793790460172545
23.12749620552218	88.61189381737717
89.83230468767633	71.8323396772429
36.15061252837181	84.5423081880442
1.7457061729758472	71.67369037957788
93.27730282074835	41.255780625800455
77.64708857234429	33.41467842203806
75.55204059689675	91.71648589672476
35.614875965516354	41.857461347059385
43.46542820348558	59.29819659436644
28.435110592354505	53.62593956285615
49.826643285223824	99.86104277534315
90.63933722065829	22.333198060480452
51.39788949252819	67.82390980310919
17.81478089487356	47.66074027353145
93.19034574754683	25.143261634215207
75.36509623768913	28.55414803087355
87.50918270763505	58.24509150492362
