99.71924984590922	1.552416273182522
44.3219800078975	37.13851827476869
61.537576861136024	5.682933802676571
55.21931609885469	63.29561578477413
58.99151629513495	70.88060131685393
73.97915797298018	7.20050935214992
4.4804297764961305	84.52949387171338
81.1141989425687	63.780727226617195
29.73982521290395	50.824323202235455
70.10664279425235	29.009934035140937
20.880505642967762	2.065220464378803
15.562775999442923	65.28086756209906
68.85797923562797	11.491126733815127
69.16078067922157	11.819854195350777
29.922339937826315	63.50446056047059
34.8627434513033	35.8525494907849
98.6421690488544	16.55417264556165
29.579006712987	68.07828862489444
68.84119323676414	31.628079665052244
14.553667634262657	35.81582713321105
70.64714746309052	53.89236866363616
57.838794824613295	17.787014572980752
17.92196968398223	18.363806295254005
67.50369634580987	53.54738733718874
39.56518575554108	21.770345243060905
46.466586136948465	44.32547193564326
40.85077637665994	39.50661690548339
92.46605490163047	98.20346783875307
54.11768317080726	75.85924087999078
26.321813733065515	26.923499040856857
88.52257913824765	55.57508846196587
65.55650388781369	38.017540576925654
26.493825682397333	64.49942923508488
77.38872148891613	84.59177624063166
41.973303471781506	4.532299265986617
15.688101710620039	22.48662176515038
56.335081355524565	53.25829992448774
75.3254473679955	65.20242117939426
68.67079816022763	92.52092303797696
82.49910297419548	74.99069314765026
52.98685172871579	91.28844086773255
43.47369898868786	79.70216355818613
24.95908722326132	48.72445967628677
61.866134582093494	77.48875863760686
33.53549090653332	9.93517028414309
30.09691966081014	41.453070494844646
16.287147845155083	20.623480732763046
42.65358749090284	50.70763545582668
