95.82964686456903	94.91258112867135
16.261807069858026	92.71804533440577
52.03075440085397	97.69989794008015
23.51218155861029	90.3365943571387
73.64093045813553	29.146528448155063
95.51368297232979	42.66607516474609
20.227968530989372	44.29702034709434
52.34728585317882	76.30494207086244
59.187975406062876	20.382144969555107
27.262867018347315	22.551388399379015
13.64711924255515	48.35191852594624
12.510085377016155	99.97919348692724
56.80967685264411	15.250954288120223
45.11708281023764	78.6066744208452
93.15716383024893	97.21872338041196
19.86210359384355	72.42105528734942
47.20404495039697	99.06130852397428
23.87623018445425	63.95242743925375
52.84860341028572	61.83404430690443
19.197117863327207	64.48407692862486
8.002246916734379	65.72405114514069
60.825210719569064	1.74635326949657
25.55597891655308	2.664606751762544
79.77418150715025	50.079490558789054
91.09011174309049	78.11006564941829
55.21826567280744	70.31697665554286
22.454862501561436	54.005966000058045
5.969270251186098	59.51123658095078
86.06504891702954	88.42702971662303
72.66456340126535	39.276181422544944
90.56968825153837	3.8799360157072527
95.45812345675306	91.50718208950886
8.887637230229572	66.96499520502321
5.735801753681102	17.901378196922302
19.43494621593912	66.20695249445487
26.299857221801325	64.33858536769364
89.82876211673437	57.07971313433996
5.661662162705349	93.73991706263001
46.262064579713694	2.997816451169555
12.741925827406963	86.80629421579718
27.27845141723967	33.01529853340186
78.57915615795423	71.92591918937156
38.138157452700106	48.152312397761186
53.0830657261039	43.273958235388136
92.21658816036388	42.9657284914783
83.43196828184847	65.23472782243492
59.3544680139675	16.690542746562155
52.42296103152708	61.358415424833645
96.7074713453541	27.919665078083213
62.36257399440556	5.899269253214479
95.7194828955	47.481266649475586
20.542473343106572	38.46921516561944
95.00582747851341	61.648740213512674
73.18210121369555	71.23499837271903
11.322190270919851	88.65832536429473
57.702142993713736	88.80445976865938
27.71214162571296	77.70322842054088
77.18962227142526	19.910396289905364
76.32652558954865	41.804653139243186
52.41551576620074	41.073458010646426
77.07908080848098	99.83648532315553
87.32070231663506	59.12224726300268
99.03924588793568	5.439819993943207
11.037596883687383	19.851604733148555
29.368863816866263	89.87689510106557
42.02632466044999	52.87291783815985
36.630196734890816	52.7406273512911
87.74993631207188	66.48736540967523
54.4108352453163	25.345629762390477
93.68891042962959	94.5501564142652
84.80837418359624	21.346420293122314
1.7638126860408332	12.019478831210971
24.5418353960152	76.08082509430218
76.70026055249495	63.70142811398567
71.96358027673597	95.6910411988074
52.97873800480003	19.4923554867101
53.89106099972084	48.3147720640304
95.66015338321044	62.157668661290934
85.61188665951846	88.91747649989206
58.119066650880725	6.5181177377552135
66.3871827118387	42.47906065382929
61.94959141697092	28.421575738559525
32.69895342769483	49.90530607995042
94.7495133051124	45.3115345408308
23.015514353153876	15.373347745989363
36.28183001737061	81.62290827457049
72.02257413922666	67.94709978862883
86.24976319077876	67.80984412656768
17.337497683651105	77.80299038013231
36.261836431618434	81.53931510458358
14.511332570301239	9.28956963354718
17.104621732939773	58.617178543775715
25.635868913967673	19.759942011294505
42.14690157552443	40.54499473017978
51.813888868193644	46.04672303731008
61.0119384680602	20.093511360664774
92.11497448359557	37.2191737324207
77.5372439826663	15.106525838329398
50.83628260664985	82.39497612576866
2.4011927900884023	25.203535765001362
30.64793303028688	12.640979496553918
24.606085522984532	57.33243731918305
51.98216628327232	47.978398480136796
30.115353508209896	17.41891760895429
15.293813046421667	9.087939557624669
80.95418515633769	39.420239505888446
29.310551777674497	82.81416404610961
62.35107718633287	82.6381536297807
7.884191041703814	82.66822035326932
17.585056099005758	60.563645783146235
88.93004757810282	87.97261218000635
43.85459983577821	90.55853984370391
71.41023775812016	12.4426594181403
99.11036039221534	19.825737337713534
39.94901546766003	2.1334656753620007
12.820519607818948	96.2919394637779
47.60108508436887	9.507325548315858
96.45294598420064	72.49904791523772
58.26351676540702	50.03847794394216
4.1556034339351955	26.218229658183635
28.705727722106566	72.81515135103044
54.624433219296535	89.6768800195246
96.02383138741057	94.46979839204944
6.248258112067939	21.043660698946276
49.2901446433105	73.67060394870086
83.67713948494095	58.07679450981757
66.86123521516474	5.667032301906394
32.659299271371125	91.45596932553669
9.562912113687428	70.54889318767978
66.22899387027601	7.831153454971684
35.785462013856815	49.659223159120735
45.01762627451612	52.771076684824656
99.14854391521263	85.67145573174957
60.282800698900964	28.767090417685125
15.84738331216099	64.01705036364108
14.426192360361	31.29503946518961
77.42803391572679	32.902176573742345
89.62032724920135	69.3607342571964
65.062022955911	28.772915446063518
9.379464255764846	19.97664681257024
77.52237547358726	30.595021112658838
60.1155679424815	78.37262833865668
12.301447960131629	1.9554191939389787
79.2657147259196	50.99732494493612
89.71242666420876	77.21264724038647
36.775128467600695	96.68974369008278
23.94382308157651	34.814552412364804
71.84203228395859	42.13904355275323
12.930630159559964	49.56364971908685
43.96681577857425	4.614989806012348
48.87518180299416	48.992142582002685
61.86294737166723	90.76404566659969
87.49696904589652	86.20906898318276
88.89497897278589	15.18974113594248
74.99272472767866	20.5363431389867
57.05565908566428	28.026296607524458
24.05013598204272	26.543610977653554
11.57702582531428	69.59391682352003
6.50428003960678	57.617758776437334
63.81270046910647	61.638582001985434
69.41512480082164	30.450498803238347
95.22204252607068	73.18188640632705
50.57970329066103	79.37659829368316
65.28271386305062	13.61932498410734
66.78918504287394	38.03605774901456
92.59546375587458	40.410651029554614
27.44090306980794	83.41565656337751
23.716837510557585	99.14445196458547
92.10645723869932	18.569561262689284
29.313124517393085	41.30726805575878
68.33852556478207	70.57232328604658
54.716533177250305	97.29500949595543
16.106754493688424	62.11806137784141
25.572906765573677	88.53379335931672
39.70115717712627	22.54401835891471
63.743702470086085	70.5753371312521
82.20660589795766	2.885319911783435
16.783988010038186	10.379879557473192
70.32133526073035	58.8856700688138
