79.9435754827717	97.48513455450711
2.940038456412186	16.44201585161972
52.25003721939194	96.88098866774625
68.52216412895118	94.22184665803573
86.01650944051717	92.58772915268115
49.33932966512985	22.034573285335824
81.88892385452736	39.424103015094914
36.798974000704575	21.02907456075085
76.02294726250382	20.751213701672388
7.376315511388709	40.1475722647062
76.75878803506637	27.449466792507128
92.56108580177438	48.02287572412233
79.12091228499794	50.44802481876333
43.22471013364647	49.49782556177061
29.21306867132788	60.17030043457064
33.84936545987946	64.81684822786951
63.259853681755295	31.42866525500606
51.45360564064466	57.42821184867021
41.092396845663245	90.7107569008388
29.39217221952861	62.09584243607499
93.45612837270883	21.965144541793546
72.21093014084018	99.1763913670288
76.35382525339197	84.36503200327226
65.3207823876177	2.5990801407882125
87.94948303036284	55.39898503644514
3.7577448206157493	27.548953974287514
77.98087057228284	56.14673141309697
2.397302470020679	18.035419422241883
5.42021659978742	26.195106109505705
15.568316569339347	0.6193878116146023
30.96362088033161	99.78208723692104
65.30028168395084	48.114585392276055
30.38561840726447	73.13046470680591
29.893842158664363	33.054127062624794
27.847843295512853	5.907434337108752
27.67416190409572	25.254380632406015
2.702789410718165	80.24207804552941
56.47789759676009	74.54303999464432
65.47243846716465	56.46724699071003
6.061574765777367	67.2534192618146
19.81512518440045	41.99190176087435
1.5935194904417083	85.26291312365136
3.400923856536775	62.95253957952558
16.754957136957383	91.12728674381289
31.06847363930314	89.99569392387913
89.05401231239239	12.221841331636284
34.087919155483206	82.850628760088
96.38642697805328	96.20359552728081
35.562625062881594	35.99354003882907
4.352151799013937	44.00145900979717
64.77057573950266	74.91034316054711
20.53732871092453	39.453030510886855
32.59403734057842	95.34156136215188
67.68184778074564	29.020292279632876
69.32823085115434	77.43660971576776
39.974894314847816	94.95395514947624
3.7662919309027876	76.53554094169361
91.84450851073534	7.9601532822652254
2.8596576190719647	97.25727251460837
89.56828462152968	26.32184139476097
43.56464202832457	33.46922243810621
33.38273866410649	41.272855460351686
56.345002386085255	57.78492506971368
96.43292529241555	44.37677633262885
71.81625990269309	40.17483546228645
89.39256037039392	45.48075259830715
