3.146972056024744	57.545397364163705
93.47382300504326	19.916034137596405
7.2113635945333705	19.61440567824844
32.36630036977218	72.00221636701991
80.32742148880779	82.14216289473934
16.482511870996873	58.36908907519091
0.9261609968999718	70.76383740453977
67.70782044685375	53.18170018115887
87.004725019174	70.67665424288101
91.82511886117463	97.6364685454709
14.483604699604047	68.62895736201492
90.05521945156694	4.191413216018358
43.419831978333356	44.11673355556049
47.97081913050268	77.10237776681146
95.48912993575146	27.69890175659844
60.79410781087673	59.102965711281996
37.59434095827169	8.050390164176003
7.319508761919035	32.530918807763065
65.81847154206952	88.01092338878921
78.20200076963818	30.594111659446988
8.323969990432401	24.362775748098397
63.18762813114432	17.177520655987077
14.039725003505776	40.897524435857726
62.34995013558704	97.82204564152126
94.49778985275464	2.4614432139127285
71.62526301328816	69.54365703522026
20.9054970063154	56.96181921247108
73.3586846811269	23.923333247861102
74.45330793614042	16.507156084715234
80.17247851704468	38.7517400579052
27.9570348056171	76.40517884259597
94.98695780559548	86.44562049934217
40.8955671623979	3.4185491222383457
97.93395919434585	44.09579095902689
77.3330502314405	46.35772314843444
97.04640701396966	8.142337471213757
76.7941222734549	44.28392329242151
6.1915208042752194	50.82822785549196
43.939397414938306	48.99885757365002
60.51439012690061	6.863212884942749
26.071480596620223	43.29745803759859
33.5334848498983	86.95195840629717
37.56480470445381	67.66204018891024
66.05887474057242	60.95577238175157
74.65141021646534	4.920576109976304
67.31923628835655	39.98939970568164
56.87889043894576	89.05153327026139
7.473652345282011	24.600704816426
0.06946190473917646	35.14355206869947
45.56163540168008	3.390291922230515
89.66653091007353	67.86968139032993
47.67981164917505	89.12007103758506
44.32116690411561	39.32872680234437
24.27622315639998	54.17032321157031
94.03662985598285	46.003167991679405
87.57382383137993	65.48943864003166
97.48588443911669	82.4095886464003
30.032492135267177	94.09430154856582
57.708603827207625	51.09247166828652
16.64783755228756	18.315782852637984
32.91559747401347	52.64140726066121
33.7033315916038	73.85018306712021
48.47173773643827	83.59204325100885
53.195022693463365	10.677416699954534
66.54955996886878	78.98162146372137
86.21908129645412	59.7124488395263
94.75633165967412	84.5166550994534
99.17543710619334	94.18569231709894
26.26482060316104	28.533361222722707
93.64478212119067	50.86978960656673
51.42476726852492	27.58892252504034
65.25273679096193	7.851301704984104
95.3440085218764	23.6172510037558
10.796145512109302	53.0010258203784
92.79391687257153	84.2172866620606
