74.87785359984798	56.19351076764131
70.11840798238835	34.61282496379455
75.9125069818012	10.459362853304322
81.27202595976449	5.876818453565136
16.65453592336008	13.626168206884493
99.84623272702045	20.24104568380125
97.2592172774525	36.10199753068572
76.1367207534457	73.77701158354833
64.00990467859296	37.497499910163626
45.317177161424404	72.0090122564575
22.337920831329473	68.81639835503731
45.34059941653865	35.51783426857797
44.3861141325612	74.94460796687616
16.294207712782484	85.3687071815114
13.22835813348191	3.2474040122911108
17.11219346967876	29.387141783600136
51.52312318366409	38.92182147005357
29.291621096752618	39.03424533553588
76.97820352176794	9.169953479989157
32.237711031305906	44.737298957482565
79.15857136447863	18.594977564933735
14.252472400851524	49.46447043027905
99.0312097738191	49.064422507678294
60.20982632967423	45.46810145762565
5.967693250798289	95.40771593605047
48.92090964205994	5.134288292469503
89.91533801963897	53.198667757115395
90.12599872286633	33.14501784379652
89.41960835324586	85.3001826854417
57.868832450289744	55.17572117555838
37.257310968475906	74.76083781722915
15.255448022204543	0.05499999920071108
81.05221145201375	29.046418447035915
19.535093012172545	68.67899971156727
30.60698894444467	98.53548626813384
77.59871551141117	89.96640170279451
1.1748252673183024	6.804222383704639
75.9249416964465	54.03532936262293
92.2558447510621	80.12929775088824
0.5426925344355849	25.293109056520002
87.07436291202701	30.195853011422358
97.03933681781915	27.27951390333364
36.99520782124648	14.152735596991795
35.058747196869945	57.89513081127119
62.704842650156834	22.237860187976278
43.592639074957305	72.87048741509015
3.8352564900945185	45.50558347632085
12.044422738071836	70.2739686980635
61.34894120200827	40.55651527824226
