87.31401269958526	2.414384467870645
56.30606868751031	32.22912435280377
65.74188362269824	93.90237838898805
15.103188853861827	88.82334333155839
91.73697778818077	72.34665477090235
88.27916789073048	33.3432730888538
1.4460214077562927	54.59142888786391
75.11120684492202	34.89640271605582
57.54034104377838	23.513156726360627
14.365749468580525	53.706452887584646
13.148418079025303	5.971474066183358
15.453508650313818	55.173893957147634
49.868154480607295	96.50200341838946
22.847151458211368	28.98809622607915
85.0538200631912	27.00068466527268
46.92988630204486	19.263085139059598
33.1879498885566	25.061369800106092
99.48690627392806	94.14631106552604
26.150125309571482	2.322769356464871
18.712483928655523	95.8555691111047
0.4255085960649052	33.589024109653984
0.29124893649196126	66.76612867790173
57.68128619211193	80.5953021254442
71.20065387331879	77.09397664503214
3.6833762550993354	57.35235286839239
92.90369800598128	86.8337695490854
48.58335606779695	37.975671414392906
86.51688814665661	87.76905135206216
38.7256421543909	19.760008110006645
45.84022262861653	31.171579165869034
39.29754058418637	8.476480445410639
96.36042653383514	43.35167047927298
84.50340254356337	96.9668775718914
98.89671762427234	27.34426402867649
37.55840934514744	91.00251845908406
35.09198007677221	81.29634671043523
66.35404954546782	72.2047788688707
53.78049756600413	19.479362378017072
63.179978360845304	60.398480470462864
87.61188573284105	64.08357600962997
27.473781005312013	81.76337804529632
58.467773857993876	19.234586301836842
47.19988458475601	13.277530909554681
18.36695650240395	78.15726317630364
94.06185480238733	19.323307977228087
99.12975510387278	97.614427005217
3.2871089772984474	37.77911149203561
25.435168694806386	43.97249707835793
30.85820140662011	98.64867158684171
42.61717618226461	60.3999785917059
56.3324121011332	62.33300488117952
66.90763175547336	89.4800127793554
86.89628859837835	31.052239192873
47.58658915406322	54.351251387145496
18.437151909905413	83.5044499558001
37.24873798055377	61.135727705774556
89.27991964576674	69.97901999797035
89.41465291879908	42.20097394645806
19.614551061723695	87.86814752440392
67.08730145441773	98.99179112518839
11.28524771995033	72.75861964455702
33.965720399284905	31.642760303132032
41.73537400932867	57.758263602590844
19.19343422401616	74.40310419173726
47.897222011623185	11.838690713998135
60.33337839559262	67.72563720270568
80.77983401246244	90.76565270198302
71.7473951858248	96.2682100763137
99.31753723673393	95.94805324270943
