47.11043428601598	47.846882650574074
27.945277756472574	85.38003244612705
42.25592271595803	90.74826691539549
73.06897476217947	4.140219576708604
18.959927015545976	4.88522091786322
67.22977370445878	85.95903927160366
36.95731229731032	14.606091784834485
44.37938555519525	75.07427901617947
58.008692594453784	94.88582235315339
73.84674337260023	40.51283182591767
27.564997465143403	95.25438021440141
40.88057859416323	69.4452294445422
57.96582194013337	34.49590978086463
62.19554026555696	95.14941616762917
72.009440381678	64.53165103563099
99.93555152932618	45.664978619293194
6.253115342663373	81.02955269641473
15.170852883213326	2.4990453586130723
19.51547775814646	71.76084142115879
54.24524013433617	35.35089297589743
80.01029797962416	84.21525258633582
68.35496424816216	82.63174137295177
51.02679976890337	68.63645181746062
88.37045396657933	92.15325694033758
25.83673139606747	37.81305508975245
47.53621858796293	10.575297629619328
63.06854399948543	99.95563765746452
64.07344581781335	22.20434359577652
67.5918852228422	26.60784705892003
63.779353918964155	46.479752707458424
37.232007995943206	8.283275964315672
29.44494424719124	81.50962362271056
72.03371707927906	79.37913829343472
35.29818761989858	0.23796722571959306
69.65183939916312	19.867664791845506
58.02282738455672	66.1174334228069
92.57683845309069	86.73526068919554
25.63369230037119	55.26831804965392
22.74386828915953	49.780097593677475
11.207493335665852	2.867662678238736
79.05979586377072	89.41460041496222
55.88327252299804	28.557885574619302
17.58581229226146	56.721068534998366
10.896119963441087	32.02147262981324
0.5364243683273262	19.318478106493664
63.059082611041916	27.3680537179952
75.95749572668998	0.7469712253591831
96.18917953483353	18.55072142488853
40.98654632910451	60.515216769564596
95.09565140381262	13.582128451254526
73.88541318467612	17.570133529657884
61.68555534486868	55.22274519599708
46.594276578917615	66.25661697045253
98.71382097169298	50.33703882080363
10.938564511924842	97.62608835991685
65.37881273141433	93.28015198560541
54.10851228364167	3.243527900900156
4.51305861209097	91.6338147889064
72.36311647732097	48.323328934185206
32.38282102072684	21.383386131063197
69.21383425903568	12.838124456736022
63.26239232761742	22.577925089306603
70.33624506562114	87.678159526191
3.334659780412408	64.1374799514205
15.492384797705638	13.415720416038933
40.539547860818935	12.854022674211873
20.92669489853306	26.215548558672484
93.01212594498055	8.663705557033975
1.2306313316671758	13.856783724922328
46.16961282600097	58.38184970894115
63.15229530961008	30.07086464520492
20.741951932902058	45.31757216489029
93.76055194652137	30.384862144882508
15.364950404126676	10.690728974591757
66.84770403419135	26.280913451031264
10.081919732185685	84.8976800842074
75.06945508962677	25.048879600967176
85.51060705756593	55.57911724854665
9.123894038467661	69.98357982413624
13.602856698647848	8.218517101708755
