87.55471427240393	88.75765241333958
95.44729411888785	66.37968470526769
29.65151619218781	16.689753023057175
97.63490343231476	49.71298144282492
39.161468097895245	28.251064351845322
54.367976421208674	3.9091632178348656
55.46465609175266	33.62864737405806
89.04873745175318	54.743407293659466
43.410285369029445	61.887135414296246
54.59040432149499	69.95416082949166
16.889329713998325	3.5107495720070103
15.459856069509181	86.63373140421817
36.03103087517576	33.81380407676009
13.512593324045675	73.05895357519407
76.68241884833401	9.808182508967889
73.05842445277018	78.22195346917637
89.03038216087484	51.97726058166784
40.88500392472286	32.494784489878
91.27238994262642	49.34453378688646
26.70731187135266	6.970785917732281
36.24253489934449	52.728269095144206
78.12755280601768	35.92420249243854
16.254893646525083	17.12591854929839
31.607195495444817	49.46382854801351
78.33238241202065	45.86853773435395
8.712109797655643	71.11060508010037
23.229854087871914	57.149746371303614
67.38593320311782	42.04832086407626
15.151335058132343	7.179031726096574
3.647884410730995	75.77160943346476
42.39388631851935	4.282707272961883
97.5416804718105	16.892966532637065
47.71572968090967	61.10578448318127
84.24645876768682	70.92272291950056
77.06674431747385	0.32314551318733953
54.05055575152975	69.08584077504369
35.4618832356612	8.735651025437596
62.38019219927661	21.750039212585094
59.84190493228502	24.284159093266624
83.92447465123928	69.27291536681165
49.97971282048027	57.11664024509634
27.68061613675711	80.44430895408607
17.122373635885623	7.298653597471638
55.85279286291319	78.44051069276296
1.4115809068105056	21.200717111665934
47.383082438754286	45.9784757401872
45.17008793545696	66.73867616516065
23.56870608082434	59.597633241986344
29.714967720816265	77.44009300988641
10.20931664100595	16.994681298664794
68.33846734737801	41.842838945990344
81.68128851506042	76.95149977291915
6.521613756285327	79.99931424706045
92.15915166596075	53.490463170404745
71.5423541795361	61.25313512805286
