73.10041723232963	17.45678791817946
86.85509812038799	56.537498719355774
8.232266621571227	51.69647469013925
34.92783621827547	35.849870331154385
83.33280682184916	76.52500460673815
81.24018447770372	51.59202851757151
59.30093010688518	62.2026020390784
39.35731924073106	91.01998150847099
72.82039654189553	28.034110418321944
56.730054394661636	24.16551131740642
89.68778058822913	30.150615234891376
44.368462445092206	94.28161827555034
