28.821248551741064	92.12265696971222
77.62970473817398	58.34703456451663
96.34582879760775	89.81574938032378
99.88687417686528	45.91773113414893
28.897216621409072	98.53556220507281
33.66348796512184	4.438327995383251
58.606678105544866	7.17235976188878
91.2327912621883	94.06031409695345
1.2460913809634655	45.86083919082098
10.573111577962258	58.769659971889034
95.0696807237387	17.056730519915753
48.567937263252325	22.297256639889962
93.57718147413652	17.79963724123863
16.18858518791041	53.858091306406564
26.425493942073363	57.49491802691438
38.58406685559381	82.70626519984795
87.45316607661151	67.28940074572363
23.676752031796422	12.237605115308202
32.387772886109076	96.50756171241012
45.33235243735576	52.19091609104892
32.57038037868788	46.97335094533882
1.9780445563807314	95.84989062679854
74.6607881503081	28.788837054014195
60.45764097723488	86.90422901008954
49.36456314313724	30.120608335046207
34.15763297718875	92.49737123348848
5.714476299247718	37.58641561575347
36.917565503973606	64.49871699591161
68.24366014614019	21.372911204490197
76.37669538741572	30.483422921100967
4.894244132124892	11.610892487354851
98.43202926063294	92.26360588359633
40.53876015425145	37.48170941948145
17.655771298111333	26.065866564130914
29.690722055714314	39.10826119251071
92.902736161739	79.9152114322032
40.473419265259636	54.751463651657176
78.9675651824717	65.9134265264515
96.85893612122652	55.23923404468898
12.505504895446851	8.720549051059933
11.692626193807488	47.759297711878254
38.6086494132984	4.770580046994322
3.4059639767721306	48.431445457387504
1.5262570350288773	25.01140164727751
43.62487421613477	28.319444514059565
70.5552167190381	18.75793591996927
46.8454447050066	80.82948967012526
24.699519149374304	22.49469378808364
13.740251410706394	55.05626066392393
48.12913628517405	76.19967670761349
35.8620561593886	97.85687474176723
18.228678404373845	50.86161565888059
59.97821951049498	76.12761285424395
16.336343310196042	51.62401882268131
18.52011965110174	5.274415026800683
50.293028056286396	4.259627698327739
43.22667483810958	63.65676651139748
16.21492720928196	86.94619731614088
46.49321687451942	92.40118092790416
49.099262229817555	53.087188286859664
50.74159863976686	7.032631684935852
71.42962069637468	29.212521222813827
55.041535795500415	82.29921792313239
87.30519516743342	64.75442102329602
84.79982340757547	82.01005835384805
62.99946417500236	43.947975583602926
29.798743559322183	14.721298449285925
97.41963039224346	29.03847204653369
44.95437709364503	96.70218102025349
82.37242836650813	90.73630152542829
95.4067749691669	28.00066448879942
41.52606806472319	50.745129081432914
91.4870934181911	97.68481705279416
85.90332422508305	37.762322000978955
78.46265187941455	56.60061864524602
9.001482258661719	5.577170365054329
31.91068310207703	91.934461084052
82.8690621436496	4.773649557884663
50.01510875038766	58.173414156164746
37.122663040037196	32.253564710389995
63.49936935596303	21.09494504387912
25.28950479674824	48.88545665166746
73.73963985917545	85.92449755561674
16.057069609483744	1.5045183387916272
84.34581066577836	19.64190542122396
46.126180708279875	81.67267297813694
22.525811649020667	7.830370198816472
5.469167782164142	81.50937571854651
83.84029603306575	99.82880489361584
64.63381138652733	40.86149624465342
88.96862925041123	98.03621193092374
2.150755728794007	68.45276903253756
84.15167043176653	89.1629413770562
65.38006531201017	56.06619888810541
81.67952543979922	94.95333811447864
1.6923880558275317	10.692043071100233
86.29842742030556	73.87021950470353
71.87321940485404	34.85389798071283
36.355552776339096	11.775285208704823
36.11922684516487	30.432928674647453
14.441458725270806	41.360496658957636
61.06685944728378	32.635584539047116
47.99799331112037	39.76694847459964
7.538057799860464	37.82947588723242
92.89029591650537	22.149713835344908
67.91819961322048	17.37704985316998
36.53664027975111	23.573468428244183
43.90348833014978	4.0788871198676135
46.41810624890116	22.884141841876737
52.050780552727694	37.797288016272375
66.62112842479931	38.80837301809421
14.72783075014117	60.91263722553939
84.88816582165101	91.21784064112141
26.287364814768644	44.14057458522945
0.6339325114468664	46.76344093617158
62.5028108702519	55.31036606876722
22.17889432554211	95.49219716883538
60.38383971557624	87.518516459524
35.916933934629746	27.148100815835686
40.610549551223926	27.292631747659524
30.728364802077003	2.655473057440616
76.02322367656956	71.29771690713937
61.53837264882584	15.847566481274633
68.42959894576404	89.52190701498188
82.75067665503468	95.81183370622234
45.04789504310249	29.530500656788895
60.809163080232054	46.509550677468056
41.7389787991159	84.83449840168285
53.55437952124069	21.206902179953445
51.987606955302624	70.67933460370239
18.81942649038859	52.924097663545
67.38908476020433	81.42591130573133
94.36718137317415	72.13745343568554
72.70180641119154	78.60058908493316
7.61654531394046	65.62114264427872
66.21189828071181	45.79085484744325
12.460451164293417	74.66398918845789
60.118882451745336	98.13766764326648
79.5771810823101	20.174089265113683
46.94287717693584	79.25716193617322
85.51479999737595	4.692449604318716
50.203970253395354	11.364675989714545
27.262837302946018	70.87352988102916
35.04592286385384	70.84213929272309
26.662946760937157	70.68809806690449
67.2367768735768	36.9717868669146
1.251204344826684	56.142986152143
40.53148086332411	64.82308085388495
93.83464920985574	61.635950837838706
37.57914591500994	72.40267153578893
51.54997262413429	10.09167301307059
37.580224319514535	5.7083780250116405
48.32715315163273	84.27090772855689
47.38498785535932	32.702030350931025
40.3332830082367	73.40119697979411
18.731754778993505	31.492139170057996
36.889345929522875	22.121144363624012
61.52292035858651	11.082083192782266
66.87290389043865	9.044832622342335
93.09605320388553	99.36983958844762
57.75439046053624	16.44076580796018
40.8432947796892	73.96410108330585
6.946506004192887	37.23505695429606
28.091784608904657	27.558540676029843
14.888246295348262	53.5973741862773
20.203911460024315	84.52358799631658
12.300930233483353	37.48458764775885
26.83107230473899	19.403180855403267
