92.14912361138549	27.736428362335197
18.6051490222371	56.557810196889655
53.65816438751176	96.8050879714262
56.39081530015263	2.962169445310736
65.62640545521607	36.16442903595608
39.13343976057131	57.97216781673622
27.8386250976693	16.266026718609062
81.21351149071388	78.05742139274953
40.91301341541759	76.69567599669614
23.863970929494084	83.76225533189512
23.70798567579291	41.012499085492834
45.87314147653176	24.606046536599134
43.12230346331752	52.52408637360105
75.95180949987356	22.016302961586742
14.758526778048598	65.92589435437664
23.765381354731986	66.13080840989429
52.0241069732533	12.070112813867272
9.962308511589113	71.1114883836703
9.45900406914635	14.497836449735924
28.810690862625478	56.578108191394485
93.92842709395546	70.48833783535915
54.54417661771542	71.20075978969716
10.053732795935822	11.340086281432749
17.645520459154806	72.51529922206782
24.312998158570586	32.564498799315174
