55.49325019482156	89.10990210506738
93.16933917892268	34.10794083475533
24.35484231054127	72.64108571494434
0.547470124110605	87.1677508859714
58.44044217022725	54.381436739340586
37.041452089116824	98.91089224014095
70.60502107124795	17.430101740686908
21.338105454814027	78.86028075569787
76.1630265286942	76.37686730047776
49.36650810138282	91.27913056189583
50.74492191065158	88.63190485645126
65.56387725058632	47.45015893083221
2.9260584811718116	66.40862530797102
64.59783597621133	24.799314208357647
15.477346074617436	53.08546121021989
24.750424492694677	93.95940415235685
56.283792556674996	53.37525072611928
59.285396786275705	35.991168422628306
6.559715627419926	64.20455715007228
63.79035560953346	73.50361582208403
38.237339732616945	43.645465205426845
8.629052082390764	0.02953105190587335
79.96508362388765	18.51514743966526
5.980446022982678	98.32364873667805
53.87592387618872	99.17908213283985
48.24276748706744	39.53983439868376
18.86245814065338	37.88758708116602
24.807005969058583	17.345813521456655
70.6503600915002	5.945570911485243
10.900890753533599	77.45968453511168
33.00357305174718	79.81126859089977
98.85233522458984	53.98349290068067
6.260111458308293	99.93236309715095
71.5165969977036	72.00200763014566
90.56809148779624	58.071799287820134
91.37435866247714	21.66862682663615
89.1612526032524	32.05006032197243
1.7640939613501772	60.90175160838209
78.97188650248903	44.712482120061594
46.80001786368129	45.722011326596636
77.11886520395193	85.09779577917034
82.10641421475981	41.14244022118757
12.08481822148022	55.65654528788044
86.77147352222832	57.278860816100796
56.82776337545678	19.603469508466876
92.58772998305693	3.356580598003811
51.993940014337184	20.469207648288833
63.878990161955315	73.99830910531034
50.6860110372414	69.67993890381898
60.07795248277308	69.76524376409013
41.575364836761494	20.464043281913902
49.185288922222334	86.12778530208281
42.31806321842534	56.806050504783876
95.22770498597838	97.83697344661105
86.07851275617735	99.44408259277638
69.8202131820848	54.14151153271565
88.40317675115347	61.31907780803332
99.06093203736899	84.63887980720054
14.794596145358751	61.25020006392422
73.28741670916718	33.96785665955099
47.79704727540188	39.03451885043287
65.56539730438902	45.714573796403954
23.248861445068915	81.829445015928
54.354712336725306	75.04011521262653
92.8713434776895	97.26007136674502
3.3559306378579956	93.7105062911517
78.70025961141914	74.01089821589702
94.72629339822055	31.699833096054732
59.40209787529965	93.87115094185262
63.057757987643534	48.7297049206142
71.76876345019744	32.84332628597796
22.36585579015421	23.15231070778233
83.95637905247263	17.326186584648607
14.806213887981357	58.14783320495126
74.87648017543253	61.42881722282687
87.89002592592203	33.70580729350853
79.35971426878386	57.2260456622773
88.06200233566177	76.14980730636798
67.78292603100319	34.14407864658738
28.54273576589573	91.92015171153723
4.367172293333777	89.6106059462503
1.7902523949934412	1.1543392706826472
29.70491866257111	22.81795603899035
41.39561114017458	28.88422202260177
24.831591514237637	93.83813273853762
83.85274122178869	80.9940223458255
25.070257338296887	96.30161479053469
74.71545552257106	53.58253709224097
2.221666633740149	7.683206410739674
7.2524240135782625	8.09423368803489
73.91767944399993	85.0207950414585
69.05985263068672	10.533403463153546
33.159672351728474	74.36344907581048
74.0622938141127	57.067087472221765
74.75624668634059	58.378539006736155
31.981978471708906	32.73390057904854
86.87096753807863	69.66680904563212
65.42281371455287	44.621392927161516
87.75014471148633	82.15023310820514
82.81340624907479	3.432589365117422
23.95001218597288	16.860355503285305
