90.60432411866105	35.79350349263029
47.57869723544408	73.72124878035531
58.08840231261458	30.855648304455563
86.95705549553932	51.79935821296676
31.150491616234856	96.8352384816033
62.641265690942674	79.93995366808606
1.0825068622939527	33.71466544463535
58.249134946737435	11.57886106313587
73.67693295190463	97.89563469077756
56.2638554081636	99.41332361984801
80.96194639747442	18.944865832589773
41.14623499365744	50.91302220055972
48.33896018070444	74.42380171260025
37.8559460092732	36.110760745143565
77.66594332633777	45.08717463921072
97.68683487328803	44.38795601549433
64.72937928225576	89.54723926268164
5.924153677011812	81.48396179100264
94.1152941042789	28.231125198385577
30.46496376323985	76.49443542381006
26.207127787678242	11.334786273695308
10.826718938107494	31.284964399808914
1.5558895820240393	85.76029846024376
43.31751311483725	88.6430811654927
94.8811316093421	6.3143724653529905
67.93407518471159	80.35827555263756
48.550903435523466	36.3640191979
15.828165641445969	99.90068909857057
99.70970135571504	71.05606776782516
89.64336480100737	41.93364403033849
42.59759232085305	30.913133365935195
68.65158187298358	29.528657794867787
68.00327026489177	52.41904403225228
8.487436255514691	41.549972210924814
67.20530261379483	64.43858997455008
59.76315271651856	77.70974601360294
78.25788612758245	95.42200843231589
43.665240418881744	99.0780517058739
46.08297240252538	41.02777786914707
72.70960817417622	44.33446461039622
3.0490917733049017	66.93455465311247
0.9626002602814876	65.17389963273547
91.16509586027924	99.31358318834954
15.800154907517106	49.06035149435064
68.28492988254477	86.1058201882569
75.85706640408164	54.22353135329836
58.7084636406491	28.53885695031585
82.28833663907456	79.91370498302263
19.055248870296705	48.818859772363766
32.13695342494742	95.52534394495059
65.93509898200078	45.34487046446425
52.80347693926514	42.09097858795059
14.638140762887897	83.91952679516828
93.22001832667347	19.59912895168907
16.968992510068503	64.2658056807675
0.6357288626722912	32.99394919922
40.87625387952411	49.71352036752484
16.954788252525375	40.76564294731171
89.19841159383265	18.81320152235759
38.36372498732612	45.135816624190525
79.65303385034147	39.85922294384857
44.40496940849441	68.59770202089905
74.12866843932717	11.817371534461984
18.373615760216566	39.86985925572672
94.84848477553058	74.31906343574052
16.39991675271878	86.47256117923685
76.45290845395947	83.22381726518816
98.4265915075482	55.21390598640209
87.7945585524005	35.38633147742695
0.743096392907161	87.90449414577276
97.10074699625345	72.15477298920511
16.45432858188718	89.39405252171579
24.59671428865007	65.96100180966036
2.5669425182422434	93.80635302230436
32.01789498383108	35.65109544126701
53.67033600036297	29.660989931038817
78.2909791290892	48.32423658274563
2.1305886992013523	53.23790532173066
91.92912504291375	75.82067735312766
56.69717342850409	78.81183512165347
10.657931487633654	17.418414055973685
31.904874454362876	34.82818228608252
58.08911214827175	8.462730102233817
5.264519908195597	66.35750164892691
