97.96222783848157	45.591247997442885
37.35064105503676	11.715005559452308
6.307907101796384	61.36256421721215
9.366234715175493	27.818606537170332
1.077213271026256	69.1715001765095
13.90601944918295	54.09169629140722
49.733665859691456	73.48332035918222
81.1070278775824	9.181780429645347
1.001335706215778	64.26381972907103
47.937706188628425	78.1416941749646
62.25685237700493	87.34361125168681
25.463446991664895	38.814189949289734
88.57957682095703	44.688480702086395
46.47085114020552	29.55706580071317
47.39619395087642	55.39695961361994
5.966253926913234	68.99135405401229
73.7842474343577	5.817338491731161
81.62511648931948	58.76470842494342
7.555255921236403	91.39174064531834
83.68942371684162	5.813935876812071
2.518701230634701	54.5641134892043
84.08280877819175	7.968444266224939
31.118336030816508	87.78767316128724
6.399435269865094	66.28216351226202
96.8749730545868	82.1235248107882
20.581727955174056	19.133835892864337
18.044655322102244	77.55669243141526
72.59626039110613	90.93024554704083
17.74444686633637	17.28820928799403
60.9268575585741	24.303770999998076
92.66336255348897	31.18420453920413
47.45960256297154	52.64763071671019
69.50038272925894	33.16533717497625
83.1753944283677	14.484090234214541
12.878922234108769	37.25883270848674
10.242706163142323	72.49561914953242
43.9337824341578	67.875812914928
24.503785560553837	92.10519547672314
93.81468932978765	6.974215373274085
82.81799306610354	32.22671427725885
86.39282255470388	9.15242367034107
16.0443679400884	79.788856499922
56.279612998315955	89.01169708256855
51.38992590787515	45.189372629067336
5.898698165068772	6.004888419339838
63.68399232198907	20.8330881005678
44.402772758694894	68.29346418652878
22.019121506357287	53.2987013545747
75.33374858995413	30.20239799967944
81.3532689833207	47.67895547541644
75.4652330541156	23.41342685618083
77.81483564628668	18.8211664093356
94.3606593312984	11.735136431154903
29.47580384729588	5.090098379914243
48.44179884416956	89.00012437762582
59.0250531746612	89.78631264767102
23.849326876117484	3.2555805911227753
3.275751416310546	57.88554449210025
68.99645473309022	86.01714955554219
23.15368390629692	77.38205369666424
8.783753623600743	68.09025760713303
16.098206324385277	11.553026900315844
16.446438804581764	44.685152395213144
95.53306049262623	39.891444140649924
9.953838141981619	7.446205976449793
67.62951481679616	43.06133602018396
36.33128514015049	15.128929633444333
81.84893538764351	59.59436800559986
