11.695519964292533	10.350759050503811
45.124650235343886	70.17972599482533
2.2904386731368076	2.844514299304546
78.27088744929173	45.39781722076708
7.581146825020468	45.94690323200557
49.15005698315716	39.12054446445053
21.557640772168863	41.12214882219259
85.41569995901301	62.51364955936507
14.47554575104899	79.39314598964354
79.79753049519775	80.60005272935388
12.364387461537085	26.117209791311215
31.350446705523506	70.92689657878194
9.618277272123986	16.73165786039046
86.45867225264445	88.6680229167938
1.1571467756616993	43.57345097262002
51.892349229958555	13.254940253827485
69.78568772697064	96.63502642384528
78.79935453048937	31.610310817093236
94.53253723582252	76.50973614430659
31.272018938456515	15.434847078548952
49.06437693793356	86.98005828296003
43.52090555770047	7.616873375980449
97.65894704864398	88.18742077302676
68.49211903758214	49.863428291671475
10.567658631087017	62.24801292969596
34.04395495269612	14.548328277291079
73.74055186002117	3.5805647663496587
80.18635980303104	99.79214330937005
12.109106456245645	72.30098461550567
85.53747928455981	26.38950853777309
20.444028965945982	45.40222178505442
96.70171476977949	46.17195644651522
39.485609592303405	12.201603537080164
0.682383486828464	83.34800370638602
71.5664084781706	8.846960998683018
94.68140981035886	57.588824964449756
70.39374260628331	2.4467897201987054
75.48776841322433	39.23721353145082
21.705222042345163	96.69664156151778
5.670196936445437	76.34501068904781
9.581988102150408	24.76034556011716
91.16981301519411	22.294400796823954
11.945717349504836	22.32337223135563
38.84290352794931	61.680492045296006
68.47854791253936	8.339306692346737
17.70195126243315	15.36215929931215
57.43432068673041	73.99139483740308
49.453564843380406	80.89232737364819
46.35959388467331	35.04472036574451
70.11846545957093	97.34663056619146
93.49543929254838	91.7219713982675
64.22430962359952	79.5441441018342
10.199448394004785	62.74335199619956
98.54009799915482	32.25201211612391
52.33148493856057	49.011966247138325
51.28437018402525	62.59014159067624
44.3975725228521	66.01043425099037
79.7803894247924	33.00210548774314
83.30337810245172	52.1106360472354
91.72845789798717	3.889110381914418
79.09416650020451	6.563152391608162
85.22142903622023	75.76677146465674
