76.11152884141431	37.374371784506636
27.369406806717635	86.25014170694509
90.785328204337	23.787484728992524
82.66762900475635	67.12316297733213
49.44892800235492	16.806811074144
78.80919826681553	41.25102512131039
74.06894365185939	23.656426825199905
2.6434664386308038	20.20768585729703
84.58653081405217	0.15094830235573564
3.5781680361385737	63.777823329776226
52.801811371010984	69.91913179268394
18.833925806908436	28.703317365599844
2.8997956381135226	28.405144809418815
46.97593352599897	87.42185869118791
25.55803945989482	25.81576883913709
94.39236946891398	89.10852263684916
55.68636255843818	64.57120235228622
77.03611530421374	72.005592146952
40.19351411034193	95.98472668463396
63.63561286478614	98.20147980824467
78.33839497615953	20.961525299000648
58.57752669380179	84.14171703155071
57.82549180894737	45.18858336395262
20.1587445565275	89.92055061201272
86.98008267397168	50.83820340223989
43.878298627367606	75.62965813457383
19.727899750060974	15.884474273502247
71.24179599698081	2.754389609349206
76.16588815067334	34.926188708346096
57.08852869596425	80.90640242807386
80.64731394314974	81.45953876424882
63.453878710938696	14.081977016023151
52.627409605052364	89.48213204319727
5.339938674375622	7.110653336894856
13.913921130732543	56.43599073005797
3.5762921897905198	69.0499887071026
28.872846256207563	77.37887800486733
46.00826485938967	99.60301386374812
51.4305569906264	58.712907441601494
59.07067904356826	72.05484465113011
77.8202870187433	58.80341752673325
36.85537025545257	96.74757707640897
67.49597207626051	20.292750211714594
49.044813100679555	85.57866935105484
83.60952934525173	6.950242947181772
13.80163138808933	75.17066941993346
96.12081870034955	30.022481103593346
97.63213755757687	61.22156665840922
82.34406956087463	66.24330973131558
55.15828599233835	25.55748116396115
13.47619350561764	25.220539782405215
38.95558609591566	26.953910335517463
20.04229106471066	70.81720284256085
59.78752289317376	99.61322845167186
44.331180853601325	51.0336915552917
29.91071228395731	43.129870466587604
18.932218435877367	18.690320678552975
60.7724477851214	54.47019159845694
1.2836890838163528	85.73730147537664
51.32674581361272	92.90183384133161
65.38473067944808	16.671774264420147
51.173552433444605	6.1921143735898525
6.043045259547053	46.31148671962897
74.71600123929869	46.71021940560498
72.09564507296608	57.74946339158779
76.58098222529478	98.91286262297689
55.63477635540991	69.01839138901563
12.68446835855892	97.85377875017046
35.23919486459717	83.91930483017845
78.60371552581549	59.60427267169312
97.92797102458137	33.39969871241135
39.46691788293394	32.33452065079943
8.418930446872874	2.522446892793928
41.443561048500186	28.638280913462953
81.79278694605394	97.72735270533286
42.6075412339731	71.07710156518104
74.98778921407478	45.14967841007916
85.80955582052749	39.79147710268347
56.17944755122538	60.193205818038884
57.86835585225617	15.348648246856255
15.372919234855154	17.866436109584093
79.35251786019009	90.5666237768307
95.38466220034667	87.50186892658418
45.91368346872039	33.60001302777322
17.08984638790906	29.772993707781215
42.45733573699309	85.49258475941343
27.931980756944196	78.52499862941242
1.2223185361790234	19.97720614228593
11.118931492483341	95.06950024765636
3.1183364044794826	38.38615099769632
20.43827424243706	95.11881946146494
15.322032922169072	7.045001999924216
57.2509733891649	74.98814188541466
89.84975304759317	86.9347866603738
74.56622014636213	1.2594386812828873
92.60998400712084	91.80811347774831
79.55842677949616	83.260361557253
62.612175894834664	51.3287062325539
80.77674006590516	19.519965608172207
39.29025578645518	18.006934153314912
30.87147268177246	93.99868503902633
53.54214918592215	18.51360484311969
94.99542707398128	9.759556448218841
3.9968654709283014	57.95308513714953
64.74664726429744	65.65551859360812
34.542868145619934	71.67821474146922
58.9698678772457	10.83554458328666
16.154861049192327	75.2576359785798
67.57116073960817	47.112173473629426
37.932136776818915	45.03907412758411
58.893938446849326	86.59703226604437
68.24401392208642	99.39699718607005
53.891553148773276	48.83852934369071
87.81847758567865	52.92336378443059
11.310216960289432	89.16016060810354
61.39001656898326	4.355892520433436
41.498289902838316	42.84131479530261
88.59369181939591	26.553554023547566
63.972858959189224	53.9340453617954
39.67749882219663	68.27428761669844
73.74913791766495	95.30053787576348
95.86247530785961	62.6851628062356
67.0720704283275	30.935026031549185
66.38483737059474	72.04454334003896
99.4976321726286	48.45302931382519
94.55008419672207	41.46855026891247
73.53706133581166	3.784117593072811
51.86052795802838	36.687201591116356
98.78587650886178	26.843089215608973
56.78635156767818	7.990687827641141
86.86576812441199	65.92581449637497
16.562107589986695	39.40996524472226
19.65819786217099	42.75280000311812
44.31901947425546	12.284416115320063
68.84418021063529	51.92590266092455
59.53115012658654	31.767456282009398
31.95869174604691	14.344274940943269
69.87421880456658	67.6982899007862
21.576786427915874	8.144475467382318
27.464521006904942	43.81730551666114
48.6337516961141	66.66425728747087
87.49463772226981	2.3996865007646417
0.810922593634833	89.51148203824056
